<?xml version="1.0" encoding="UTF-8" standalone="no"?>
<!-- Created with Inkscape (http://www.inkscape.org/) -->

<svg
   xmlns:osb="http://www.openswatchbook.org/uri/2009/osb"
   xmlns:dc="http://purl.org/dc/elements/1.1/"
   xmlns:cc="http://creativecommons.org/ns#"
   xmlns:rdf="http://www.w3.org/1999/02/22-rdf-syntax-ns#"
   xmlns:svg="http://www.w3.org/2000/svg"
   xmlns="http://www.w3.org/2000/svg"
   xmlns:xlink="http://www.w3.org/1999/xlink"
   xmlns:sodipodi="http://sodipodi.sourceforge.net/DTD/sodipodi-0.dtd"
   xmlns:inkscape="http://www.inkscape.org/namespaces/inkscape"
   width="198mm"
   height="200mm"
   viewBox="0 0 198 200"
   version="1.1"
   id="svg17151"
   sodipodi:docname="app_icon_with_name.svg"
   inkscape:version="0.92.3 (2405546, 2018-03-11)"
   inkscape:export-filename="/home/matthias/mpd_android/musicala/app/src/main/res/drawable/app_icon_with_name.png"
   inkscape:export-xdpi="17.84"
   inkscape:export-ydpi="17.84">
  <defs
     id="defs17145">
    <linearGradient
       inkscape:collect="always"
       id="linearGradient1283">
      <stop
         style="stop-color:#4db6ac;stop-opacity:1;"
         offset="0"
         id="stop1279" />
      <stop
         style="stop-color:#4db6ac;stop-opacity:0;"
         offset="1"
         id="stop1281" />
    </linearGradient>
    <linearGradient
       inkscape:collect="always"
       id="linearGradient1255">
      <stop
         style="stop-color:#0288d1;stop-opacity:1;"
         offset="0"
         id="stop1251" />
      <stop
         style="stop-color:#0288d1;stop-opacity:0;"
         offset="1"
         id="stop1253" />
    </linearGradient>
    <linearGradient
       id="linearGradient1091"
       osb:paint="solid"
       gradientTransform="matrix(0.06887321,0,0,0.06887321,302.74461,267.73322)">
      <stop
         style="stop-color:#ffeb3b;stop-opacity:1;"
         offset="0"
         id="stop1089" />
    </linearGradient>
    <linearGradient
       id="linearGradient1077"
       osb:paint="solid">
      <stop
         style="stop-color:#f44336;stop-opacity:1;"
         offset="0"
         id="stop1075" />
    </linearGradient>
    <linearGradient
       id="linearGradient1061"
       osb:paint="solid"
       gradientTransform="matrix(2.2052378e-6,0,0,2.2052378e-6,0.27210975,76.844727)">
      <stop
         style="stop-color:#5d4037;stop-opacity:1;"
         offset="0"
         id="stop1059" />
    </linearGradient>
    <linearGradient
       id="linearGradient1051"
       osb:paint="solid">
      <stop
         style="stop-color:#4caf50;stop-opacity:1;"
         offset="0"
         id="stop1049" />
    </linearGradient>
    <linearGradient
       id="linearGradient1041"
       osb:paint="solid">
      <stop
         style="stop-color:#009688;stop-opacity:1;"
         offset="0"
         id="stop1039" />
    </linearGradient>
    <linearGradient
       id="linearGradient1033"
       osb:paint="solid">
      <stop
         style="stop-color:#ff9800;stop-opacity:1;"
         offset="0"
         id="stop1031" />
    </linearGradient>
    <linearGradient
       id="linearGradient1023"
       osb:paint="solid">
      <stop
         style="stop-color:#9c27b0;stop-opacity:1;"
         offset="0"
         id="stop1021" />
    </linearGradient>
    <linearGradient
       inkscape:collect="always"
       xlink:href="#linearGradient1033"
       id="linearGradient1035"
       x1="351.29214"
       y1="257.15073"
       x2="458.12735"
       y2="257.15073"
       gradientUnits="userSpaceOnUse"
       gradientTransform="matrix(0.26458333,0,0,0.26458333,0,89.878489)" />
    <linearGradient
       inkscape:collect="always"
       xlink:href="#linearGradient1041"
       id="linearGradient1043"
       x1="258.26035"
       y1="274.6879"
       x2="356.97089"
       y2="274.6879"
       gradientUnits="userSpaceOnUse"
       gradientTransform="matrix(0.26458333,0,0,0.26458333,0,89.878489)" />
    <linearGradient
       inkscape:collect="always"
       xlink:href="#linearGradient1051"
       id="linearGradient1053"
       x1="258.53531"
       y1="274.70322"
       x2="356.2677"
       y2="274.70322"
       gradientUnits="userSpaceOnUse"
       gradientTransform="matrix(0.26458333,0,0,0.26458333,0,89.878489)" />
    <linearGradient
       inkscape:collect="always"
       xlink:href="#linearGradient1061"
       id="linearGradient1063"
       x1="310.82877"
       y1="308.00375"
       x2="385.92984"
       y2="308.00375"
       gradientUnits="userSpaceOnUse"
       gradientTransform="matrix(0.26458333,0,0,0.26458333,0,89.878489)" />
    <linearGradient
       inkscape:collect="always"
       xlink:href="#linearGradient1077"
       id="linearGradient1079"
       x1="351.26151"
       y1="339.82651"
       x2="401.36182"
       y2="339.82651"
       gradientUnits="userSpaceOnUse"
       gradientTransform="matrix(0.26458333,0,0,0.26458333,0,89.878489)" />
    <linearGradient
       inkscape:collect="always"
       xlink:href="#linearGradient1091"
       id="linearGradient1093"
       x1="260.72504"
       y1="274.38519"
       x2="355.09692"
       y2="274.38519"
       gradientUnits="userSpaceOnUse"
       gradientTransform="matrix(0.26458333,0,0,0.26458333,0,89.878489)" />
    <linearGradient
       inkscape:collect="always"
       xlink:href="#linearGradient1033"
       id="linearGradient1137"
       gradientTransform="matrix(0.04919515,0,0,0.04919515,230.82245,338.44287)"
       gradientUnits="userSpaceOnUse" />
    <linearGradient
       inkscape:collect="always"
       xlink:href="#linearGradient1051"
       id="linearGradient1145"
       gradientTransform="matrix(0.03513939,0,0,0.03513939,201.96047,293.87791)"
       gradientUnits="userSpaceOnUse" />
    <linearGradient
       inkscape:collect="always"
       xlink:href="#linearGradient1051"
       id="linearGradient1149"
       gradientTransform="matrix(0.02509957,0,0,0.02509957,226.32395,310.99372)"
       gradientUnits="userSpaceOnUse" />
    <linearGradient
       inkscape:collect="always"
       xlink:href="#linearGradient1051"
       id="linearGradient1153"
       gradientTransform="matrix(0.01792826,0,0,0.01792826,229.55232,324.73119)"
       gradientUnits="userSpaceOnUse" />
    <linearGradient
       inkscape:collect="always"
       xlink:href="#linearGradient1051"
       id="linearGradient1159"
       gradientTransform="matrix(0.00914707,0,0,0.00914707,272.65296,396.00818)"
       gradientUnits="userSpaceOnUse" />
    <linearGradient
       inkscape:collect="always"
       xlink:href="#linearGradient1051"
       id="linearGradient1163"
       gradientTransform="matrix(0.00653362,0,0,0.00653362,283.43317,400.76385)"
       gradientUnits="userSpaceOnUse" />
    <linearGradient
       inkscape:collect="always"
       xlink:href="#linearGradient1023"
       id="linearGradient1167"
       gradientTransform="matrix(0.00466687,0,0,0.00466687,284.70772,387.34082)"
       gradientUnits="userSpaceOnUse" />
    <linearGradient
       inkscape:collect="always"
       xlink:href="#linearGradient1077"
       id="linearGradient1171"
       gradientTransform="matrix(0.00333348,0,0,0.00333348,218.71633,320.67853)"
       gradientUnits="userSpaceOnUse" />
    <linearGradient
       inkscape:collect="always"
       xlink:href="#linearGradient1255"
       id="linearGradient1257"
       x1="596.45746"
       y1="484.5809"
       x2="433.81784"
       y2="632.07013"
       gradientUnits="userSpaceOnUse"
       gradientTransform="matrix(0.26458333,0,0,0.26458333,0,89.878489)" />
    <linearGradient
       inkscape:collect="always"
       xlink:href="#linearGradient1283"
       id="linearGradient1285"
       x1="669.61938"
       y1="488.16861"
       x2="459.54922"
       y2="700.17474"
       gradientUnits="userSpaceOnUse"
       gradientTransform="matrix(0.26458333,0,0,0.26458333,0,87.172619)" />
  </defs>
  <sodipodi:namedview
     id="base"
     pagecolor="#673ab7"
     bordercolor="#666666"
     borderopacity="1.0"
     inkscape:pageopacity="0"
     inkscape:pageshadow="2"
     inkscape:zoom="0.7"
     inkscape:cx="360.35536"
     inkscape:cy="382.31895"
     inkscape:document-units="mm"
     inkscape:current-layer="layer1"
     showgrid="true"
     inkscape:window-width="1280"
     inkscape:window-height="973"
     inkscape:window-x="0"
     inkscape:window-y="0"
     inkscape:window-maximized="1"
     inkscape:object-paths="true"
     inkscape:snap-grids="false"
     inkscape:snap-to-guides="false"
     inkscape:snap-global="true"
     inkscape:snap-others="false"
     inkscape:snap-nodes="true"
     inkscape:object-nodes="true"
     inkscape:pagecheckerboard="true">
    <inkscape:grid
       type="xygrid"
       id="grid17153" />
  </sodipodi:namedview>
  <metadata
     id="metadata17148">
    <rdf:RDF>
      <cc:Work
         rdf:about="">
        <dc:format>image/svg+xml</dc:format>
        <dc:type
           rdf:resource="http://purl.org/dc/dcmitype/StillImage" />
        <dc:title></dc:title>
      </cc:Work>
    </rdf:RDF>
  </metadata>
  <g
     inkscape:label="Ebene 1"
     inkscape:groupmode="layer"
     id="layer1"
     transform="translate(0,-97)">
    <path
       sodipodi:type="spiral"
       style="fill:none;fill-rule:evenodd;stroke:#000000;stroke-width:0.26458332"
       id="path17155"
       sodipodi:cx="92.604164"
       sodipodi:cy="184.04517"
       sodipodi:expansion="1"
       sodipodi:revolution="3"
       sodipodi:radius="100.40231"
       sodipodi:argument="-17.60051"
       sodipodi:t0="0"
       d="m 92.604164,184.04517 c 1.591892,4.77568 -5.652143,4.50199 -7.937501,2.64583 -6.193178,-5.03009 -2.851436,-14.51337 2.645843,-18.52084 9.833341,-7.16841 23.381744,-1.80997 29.104164,7.93752 8.39787,14.30482 0.798,32.39225 -13.22919,39.68749 -18.696032,9.72341 -41.456063,-0.19778 -50.270822,-18.52086 -11.092474,-23.05772 1.184448,-50.54598 23.812531,-60.85415 27.405641,-12.48458 59.650741,2.1657 71.437481,29.1042 13.89027,31.74609 -3.14354,68.76478 -34.39587,82.02082 -36.082055,15.30461 -77.88501,-4.11911 -92.604146,-39.68755 -16.724818,-40.41513 5.09307,-87.00958 44.979218,-103.18748 44.746228,-18.14915 96.137308,6.0659 113.770808,50.27089 19.57652,49.07593 -7.03786,105.26742 -55.56256,124.35414"
       inkscape:export-filename="/home/matthias/mpd_android/musicala/app/src/main/res/mipmap-mdpi/ic_launcher.png"
       inkscape:export-xdpi="6.3000002"
       inkscape:export-ydpi="6.3000002" />
    <path
       style="fill:none;stroke:#000000;stroke-width:0.26458332px;stroke-linecap:butt;stroke-linejoin:miter;stroke-opacity:1"
       d="M 87.200294,177.96117 81.934462,175.8015"
       id="path17186"
       inkscape:connector-curvature="0"
       inkscape:export-filename="/home/matthias/mpd_android/musicala/app/src/main/res/mipmap-mdpi/ic_launcher.png"
       inkscape:export-xdpi="6.3000002"
       inkscape:export-ydpi="6.3000002" />
    <path
       style="fill:none;stroke:#000000;stroke-width:0.26458332px;stroke-linecap:butt;stroke-linejoin:miter;stroke-opacity:1"
       d="m 94.34614,173.08171 -1.741977,10.96345"
       id="path17188"
       inkscape:connector-curvature="0"
       inkscape:export-filename="/home/matthias/mpd_android/musicala/app/src/main/res/mipmap-mdpi/ic_launcher.png"
       inkscape:export-xdpi="6.3000002"
       inkscape:export-ydpi="6.3000002" />
    <path
       style="fill:none;stroke:#000000;stroke-width:0.26458332px;stroke-linecap:butt;stroke-linejoin:miter;stroke-opacity:1"
       d="m 100.00832,173.44604 2.63032,-7.87421"
       id="path17190"
       inkscape:connector-curvature="0"
       inkscape:export-filename="/home/matthias/mpd_android/musicala/app/src/main/res/mipmap-mdpi/ic_launcher.png"
       inkscape:export-xdpi="6.3000002"
       inkscape:export-ydpi="6.3000002" />
    <path
       style="fill:none;stroke:#000000;stroke-width:0.26458332px;stroke-linecap:butt;stroke-linejoin:miter;stroke-opacity:1"
       d="m 106.57765,181.63884 -14.289011,5.17713"
       id="path17192"
       inkscape:connector-curvature="0"
       inkscape:export-filename="/home/matthias/mpd_android/musicala/app/src/main/res/mipmap-mdpi/ic_launcher.png"
       inkscape:export-xdpi="6.3000002"
       inkscape:export-ydpi="6.3000002" />
    <path
       style="fill:none;stroke:#000000;stroke-width:0.26458332px;stroke-linecap:butt;stroke-linejoin:miter;stroke-opacity:1"
       d="m 105.91634,187.73374 10.27541,15.29892"
       id="path17194"
       inkscape:connector-curvature="0"
       inkscape:export-filename="/home/matthias/mpd_android/musicala/app/src/main/res/mipmap-mdpi/ic_launcher.png"
       inkscape:export-xdpi="6.3000002"
       inkscape:export-ydpi="6.3000002" />
    <path
       style="fill:none;stroke:#000000;stroke-width:0.26458332px;stroke-linecap:butt;stroke-linejoin:miter;stroke-opacity:1"
       d="m 96.645649,201.45773 -8.36944,-13.54966"
       id="path17196"
       inkscape:connector-curvature="0"
       inkscape:export-filename="/home/matthias/mpd_android/musicala/app/src/main/res/mipmap-mdpi/ic_launcher.png"
       inkscape:export-xdpi="6.3000002"
       inkscape:export-ydpi="6.3000002" />
    <path
       style="fill:none;stroke:#000000;stroke-width:0.26458332px;stroke-linecap:butt;stroke-linejoin:miter;stroke-opacity:1"
       d="M 88.390306,202.36946 76.344578,217.7676"
       id="path17198"
       inkscape:connector-curvature="0"
       inkscape:export-filename="/home/matthias/mpd_android/musicala/app/src/main/res/mipmap-mdpi/ic_launcher.png"
       inkscape:export-xdpi="6.3000002"
       inkscape:export-ydpi="6.3000002" />
    <path
       style="fill:none;stroke:#000000;stroke-width:0.26458332px;stroke-linecap:butt;stroke-linejoin:miter;stroke-opacity:1"
       d="m 74.244106,196.98491 7.762783,-13.8374"
       id="path17200"
       inkscape:connector-curvature="0"
       inkscape:export-filename="/home/matthias/mpd_android/musicala/app/src/main/res/mipmap-mdpi/ic_launcher.png"
       inkscape:export-xdpi="6.3000002"
       inkscape:export-ydpi="6.3000002" />
    <path
       style="fill:none;stroke:#000000;stroke-width:0.26458332px;stroke-linecap:butt;stroke-linejoin:miter;stroke-opacity:1"
       d="m 69.349005,193.54438 -11.587236,11.3677"
       id="path17202"
       inkscape:connector-curvature="0"
       inkscape:export-filename="/home/matthias/mpd_android/musicala/app/src/main/res/mipmap-mdpi/ic_launcher.png"
       inkscape:export-xdpi="6.3000002"
       inkscape:export-ydpi="6.3000002" />
    <path
       style="fill:none;stroke:#000000;stroke-width:0.26458332px;stroke-linecap:butt;stroke-linejoin:miter;stroke-opacity:1"
       d="m 67.739077,165.88034 13.666604,12.38772"
       id="path17204"
       inkscape:connector-curvature="0"
       inkscape:export-filename="/home/matthias/mpd_android/musicala/app/src/main/res/mipmap-mdpi/ic_launcher.png"
       inkscape:export-xdpi="6.3000002"
       inkscape:export-ydpi="6.3000002" />
    <path
       style="fill:none;stroke:#000000;stroke-width:0.26458332px;stroke-linecap:butt;stroke-linejoin:miter;stroke-opacity:1"
       d="M 79.778274,152.55185 65.701351,143.43733"
       id="path17206"
       inkscape:connector-curvature="0"
       inkscape:export-filename="/home/matthias/mpd_android/musicala/app/src/main/res/mipmap-mdpi/ic_launcher.png"
       inkscape:export-xdpi="6.3000002"
       inkscape:export-ydpi="6.3000002" />
    <path
       style="fill:none;stroke:#000000;stroke-width:0.26458332px;stroke-linecap:butt;stroke-linejoin:miter;stroke-opacity:1"
       d="m 92.75044,146.94489 1.991051,18.13647"
       id="path17208"
       inkscape:connector-curvature="0"
       inkscape:export-filename="/home/matthias/mpd_android/musicala/app/src/main/res/mipmap-mdpi/ic_launcher.png"
       inkscape:export-xdpi="6.3000002"
       inkscape:export-ydpi="6.3000002" />
    <path
       style="fill:none;stroke:#000000;stroke-width:0.26458332px;stroke-linecap:butt;stroke-linejoin:miter;stroke-opacity:1"
       d="m 105.04979,147.16632 3.3326,-14.10256"
       id="path17210"
       inkscape:connector-curvature="0"
       inkscape:export-filename="/home/matthias/mpd_android/musicala/app/src/main/res/mipmap-mdpi/ic_launcher.png"
       inkscape:export-xdpi="6.3000002"
       inkscape:export-ydpi="6.3000002" />
    <path
       style="fill:none;stroke:#000000;stroke-width:0.26458332px;stroke-linecap:butt;stroke-linejoin:miter;stroke-opacity:1"
       d="m 121.77535,156.6663 -11.87017,12.38014"
       id="path17212"
       inkscape:connector-curvature="0"
       inkscape:export-filename="/home/matthias/mpd_android/musicala/app/src/main/res/mipmap-mdpi/ic_launcher.png"
       inkscape:export-xdpi="6.3000002"
       inkscape:export-ydpi="6.3000002" />
    <path
       style="fill:none;stroke:#000000;stroke-width:0.26458332px;stroke-linecap:butt;stroke-linejoin:miter;stroke-opacity:1"
       d="m 126.74348,161.72602 17.07491,-4.24542"
       id="path17214"
       inkscape:connector-curvature="0"
       inkscape:export-filename="/home/matthias/mpd_android/musicala/app/src/main/res/mipmap-mdpi/ic_launcher.png"
       inkscape:export-xdpi="6.3000002"
       inkscape:export-ydpi="6.3000002" />
    <path
       style="fill:none;stroke:#000000;stroke-width:0.26458332px;stroke-linecap:butt;stroke-linejoin:miter;stroke-opacity:1"
       d="m 136.87018,182.00777 -17.02686,5.00496"
       id="path17216"
       inkscape:connector-curvature="0"
       inkscape:export-filename="/home/matthias/mpd_android/musicala/app/src/main/res/mipmap-mdpi/ic_launcher.png"
       inkscape:export-xdpi="6.3000002"
       inkscape:export-ydpi="6.3000002" />
    <path
       style="fill:none;stroke:#000000;stroke-width:0.26458332px;stroke-linecap:butt;stroke-linejoin:miter;stroke-opacity:1"
       d="m 137.1287,195.3118 12.81141,12.77959"
       id="path17218"
       inkscape:connector-curvature="0"
       inkscape:export-filename="/home/matthias/mpd_android/musicala/app/src/main/res/mipmap-mdpi/ic_launcher.png"
       inkscape:export-xdpi="6.3000002"
       inkscape:export-ydpi="6.3000002" />
    <path
       style="fill:none;stroke:#000000;stroke-width:0.26458332px;stroke-linecap:butt;stroke-linejoin:miter;stroke-opacity:1"
       d="m 129.95646,213.71437 -19.38127,-3.2962"
       id="path17220"
       inkscape:connector-curvature="0"
       inkscape:export-filename="/home/matthias/mpd_android/musicala/app/src/main/res/mipmap-mdpi/ic_launcher.png"
       inkscape:export-xdpi="6.3000002"
       inkscape:export-ydpi="6.3000002" />
    <path
       style="fill:none;stroke:#000000;stroke-width:0.26458332px;stroke-linecap:butt;stroke-linejoin:miter;stroke-opacity:1"
       d="m 120.96395,224.07506 -0.50817,20.15591"
       id="path17222"
       inkscape:connector-curvature="0"
       inkscape:export-filename="/home/matthias/mpd_android/musicala/app/src/main/res/mipmap-mdpi/ic_launcher.png"
       inkscape:export-xdpi="6.3000002"
       inkscape:export-ydpi="6.3000002" />
    <path
       style="fill:none;stroke:#000000;stroke-width:0.26458332px;stroke-linecap:butt;stroke-linejoin:miter;stroke-opacity:1"
       d="M 101.75365,235.19385 92.428308,219.25728"
       id="path17224"
       inkscape:connector-curvature="0"
       inkscape:export-filename="/home/matthias/mpd_android/musicala/app/src/main/res/mipmap-mdpi/ic_launcher.png"
       inkscape:export-xdpi="6.3000002"
       inkscape:export-ydpi="6.3000002" />
    <path
       style="fill:none;stroke:#000000;stroke-width:0.26458332px;stroke-linecap:butt;stroke-linejoin:miter;stroke-opacity:1"
       d="M 76.888117,233.42375 59.760005,246.91096"
       id="path17226"
       inkscape:connector-curvature="0"
       inkscape:export-filename="/home/matthias/mpd_android/musicala/app/src/main/res/mipmap-mdpi/ic_launcher.png"
       inkscape:export-xdpi="6.3000002"
       inkscape:export-ydpi="6.3000002" />
    <path
       style="fill:none;stroke:#000000;stroke-width:0.26458332px;stroke-linecap:butt;stroke-linejoin:miter;stroke-opacity:1"
       d="m 54.336537,221.89104 1.989039,-18.86515"
       id="path17228"
       inkscape:connector-curvature="0"
       inkscape:export-filename="/home/matthias/mpd_android/musicala/app/src/main/res/mipmap-mdpi/ic_launcher.png"
       inkscape:export-xdpi="6.3000002"
       inkscape:export-ydpi="6.3000002" />
    <path
       style="fill:none;stroke:#000000;stroke-width:0.26458332px;stroke-linecap:butt;stroke-linejoin:miter;stroke-opacity:1"
       d="M 38.459552,205.34356 24.276861,214.4092"
       id="path17230"
       inkscape:connector-curvature="0"
       inkscape:export-filename="/home/matthias/mpd_android/musicala/app/src/main/res/mipmap-mdpi/ic_launcher.png"
       inkscape:export-xdpi="6.3000002"
       inkscape:export-ydpi="6.3000002" />
    <path
       style="fill:none;stroke:#000000;stroke-width:0.26458332px;stroke-linecap:butt;stroke-linejoin:miter;stroke-opacity:1"
       d="m 36.982492,154.70153 17.163857,3.14628"
       id="path17232"
       inkscape:connector-curvature="0"
       inkscape:export-filename="/home/matthias/mpd_android/musicala/app/src/main/res/mipmap-mdpi/ic_launcher.png"
       inkscape:export-xdpi="6.3000002"
       inkscape:export-ydpi="6.3000002" />
    <path
       style="fill:none;stroke:#000000;stroke-width:0.26458332px;stroke-linecap:butt;stroke-linejoin:miter;stroke-opacity:1"
       d="M 63.490149,121.98256 59.013984,107.98247"
       id="path17234"
       inkscape:connector-curvature="0"
       inkscape:export-filename="/home/matthias/mpd_android/musicala/app/src/main/res/mipmap-mdpi/ic_launcher.png"
       inkscape:export-xdpi="6.3000002"
       inkscape:export-ydpi="6.3000002" />
    <path
       style="fill:none;stroke:#000000;stroke-width:0.26458332px;stroke-linecap:butt;stroke-linejoin:miter;stroke-opacity:1"
       d="m 123.17238,116.27856 -5.19917,19.77127"
       id="path17236"
       inkscape:connector-curvature="0"
       inkscape:export-filename="/home/matthias/mpd_android/musicala/app/src/main/res/mipmap-mdpi/ic_launcher.png"
       inkscape:export-xdpi="6.3000002"
       inkscape:export-ydpi="6.3000002" />
    <path
       style="fill:none;stroke:#000000;stroke-width:0.26458332px;stroke-linecap:butt;stroke-linejoin:miter;stroke-opacity:1"
       d="m 166.66643,162.244 12.64743,-8.77517"
       id="path17238"
       inkscape:connector-curvature="0"
       inkscape:export-filename="/home/matthias/mpd_android/musicala/app/src/main/res/mipmap-mdpi/ic_launcher.png"
       inkscape:export-xdpi="6.3000002"
       inkscape:export-ydpi="6.3000002" />
    <path
       style="fill:none;stroke:#000000;stroke-width:0.26458332px;stroke-linecap:butt;stroke-linejoin:miter;stroke-opacity:1"
       d="m 168.38921,221.73691 -21.13733,-6.82348"
       id="path17240"
       inkscape:connector-curvature="0"
       sodipodi:nodetypes="cc"
       inkscape:export-filename="/home/matthias/mpd_android/musicala/app/src/main/res/mipmap-mdpi/ic_launcher.png"
       inkscape:export-xdpi="6.3000002"
       inkscape:export-ydpi="6.3000002" />
    <path
       style="fill:none;fill-rule:evenodd;stroke:#000000;stroke-width:0.26458332px;stroke-linecap:butt;stroke-linejoin:miter;stroke-opacity:1"
       d="m 92.604163,184.04516 -5.403871,-6.08399 7.145848,-4.87946 5.66218,0.36433 6.56933,8.1928 -0.66131,6.0949 -9.270693,13.72399 -8.255341,0.91173 -14.146202,-5.38455 -4.895099,-3.44053 -1.609928,-27.66404 12.039197,-13.32849 12.972164,-5.60696 12.299352,0.22143 16.72556,9.49998 4.96813,5.05972 10.1267,20.28175 0.25852,13.30403 -7.17224,18.40257 -8.99251,10.36069 -19.2103,11.11879 -24.865533,-1.7701 -22.55158,-11.53271 -15.876985,-16.54748 -1.47706,-50.64203 26.507657,-32.71897 59.682231,-5.704 43.49405,45.96544 1.72278,59.49291 -37.12583,37.31714 -12.84852,6.62186"
       id="path1017"
       inkscape:connector-curvature="0"
       sodipodi:nodetypes="ccccccccccccccccccccccccccccccc"
       inkscape:export-filename="/home/matthias/mpd_android/musicala/app/src/main/res/mipmap-mdpi/ic_launcher.png"
       inkscape:export-xdpi="6.3000002"
       inkscape:export-ydpi="6.3000002" />
    <path
       style="opacity:1;fill:#9c27b0;fill-opacity:1;stroke:none;stroke-width:0.71428573;stroke-miterlimit:4;stroke-dasharray:2.14285718, 0.71428573;stroke-dashoffset:0;stroke-opacity:1"
       d="m 120.48276,211.88553 c -4.98929,-0.86692 -9.13468,-1.58051 -9.21198,-1.58576 -0.0773,-0.005 0.52504,-0.80118 1.33855,-1.76874 1.83573,-2.18338 2.75909,-3.53543 3.97201,-5.8161 2.30125,-4.32707 3.38801,-8.43125 3.52312,-13.30512 l 0.0628,-2.26509 8.18649,-2.39987 c 4.50256,-1.31994 8.21177,-2.3746 8.24267,-2.3437 0.0309,0.0309 0.10401,2.98059 0.16247,6.55485 l 0.10628,6.49866 -2.48231,6.3311 c -1.36527,3.48211 -2.95441,7.54299 -3.53142,9.02419 -0.57701,1.48119 -1.10494,2.68379 -1.17318,2.67244 -0.0682,-0.0113 -4.20621,-0.72993 -9.19549,-1.59686 z"
       id="path1019"
       inkscape:connector-curvature="0"
       inkscape:export-filename="/home/matthias/mpd_android/musicala/app/src/main/res/mipmap-mdpi/ic_launcher.png"
       inkscape:export-xdpi="6.3000002"
       inkscape:export-ydpi="6.3000002" />
    <path
       style="opacity:1;fill:#009688;fill-opacity:1;stroke:none;stroke-width:0.71428573;stroke-miterlimit:4;stroke-dasharray:2.14285718, 0.71428573;stroke-dashoffset:0;stroke-opacity:1"
       d="m 119.76272,184.77224 c -0.6164,-3.75513 -2.3215,-7.84828 -4.47882,-10.75159 -1.03183,-1.38863 -4.58305,-4.92983 -4.94378,-4.92983 -0.0979,0 2.4418,-2.72946 5.64377,-6.06547 l 5.82178,-6.06547 2.43703,2.52195 2.43702,2.52194 4.8873,9.90509 c 2.68802,5.44779 4.85869,9.9337 4.82371,9.96868 -0.0566,0.0566 -14.94671,4.46458 -15.92154,4.71333 -0.3629,0.0926 -0.41458,-0.0404 -0.70647,-1.81863 z"
       id="path1027"
       inkscape:connector-curvature="0"
       inkscape:export-filename="/home/matthias/mpd_android/musicala/app/src/main/res/mipmap-mdpi/ic_launcher.png"
       inkscape:export-xdpi="6.3000002"
       inkscape:export-ydpi="6.3000002" />
    <path
       style="opacity:1;fill:url(#linearGradient1035);fill-opacity:1;stroke:none;stroke-width:0.71428573;stroke-miterlimit:4;stroke-dasharray:2.14285718, 0.71428573;stroke-dashoffset:0;stroke-opacity:1"
       d="m 108.85999,168.11012 c -1.41899,-0.95662 -4.16313,-2.18897 -6.05424,-2.71886 -1.48684,-0.41662 -2.30713,-0.51729 -4.859824,-0.59638 -2.016967,-0.0625 -3.071056,-0.16531 -3.071056,-0.29955 0,-0.33563 -1.693304,-15.84843 -1.815835,-16.63535 l -0.112991,-0.72563 6.019845,0.13446 6.019841,0.13446 8.032,4.54281 c 4.41759,2.49855 8.10477,4.60628 8.19371,4.68385 0.14662,0.12786 -11.16617,12.10272 -11.40098,12.06822 -0.055,-0.008 -0.48273,-0.27269 -0.95047,-0.58803 z"
       id="path1029"
       inkscape:connector-curvature="0"
       inkscape:export-filename="/home/matthias/mpd_android/musicala/app/src/main/res/mipmap-mdpi/ic_launcher.png"
       inkscape:export-xdpi="6.3000002"
       inkscape:export-ydpi="6.3000002" />
    <path
       style="opacity:1;fill:url(#linearGradient1043);fill-opacity:1;stroke:none;stroke-width:0.71428573;stroke-miterlimit:4;stroke-dasharray:2.14285718, 0.71428573;stroke-dashoffset:0;stroke-opacity:1"
       d="m 74.842131,172.01306 c -3.482105,-3.15374 -6.408375,-5.85517 -6.502818,-6.0032 -0.128921,-0.20205 1.294268,-1.89093 5.709999,-6.776 l 5.881722,-6.50687 6.260179,-2.69972 c 3.443097,-1.48483 6.290514,-2.66937 6.327593,-2.63229 0.07847,0.0785 1.994378,17.40729 1.928061,17.4388 -0.02445,0.0116 -0.724826,0.21272 -1.556372,0.44687 -5.75364,1.62015 -10.001901,5.80331 -11.354726,11.18071 -0.169974,0.67563 -0.32108,1.24133 -0.335791,1.2571 -0.01471,0.0158 -2.87574,-2.55166 -6.357847,-5.7054 z"
       id="path1037"
       inkscape:connector-curvature="0"
       inkscape:export-filename="/home/matthias/mpd_android/musicala/app/src/main/res/mipmap-mdpi/ic_launcher.png"
       inkscape:export-xdpi="6.3000002"
       inkscape:export-ydpi="6.3000002" />
    <path
       style="opacity:1;fill:#009688;fill-opacity:1;stroke:none;stroke-width:0.71428573;stroke-miterlimit:4;stroke-dasharray:2.14285718, 0.71428573;stroke-dashoffset:0;stroke-opacity:1"
       d="m 71.943507,195.07868 c -1.2289,-0.86664 -2.267442,-1.60878 -2.307868,-1.64921 -0.117396,-0.11739 -1.637853,-26.62872 -1.533192,-26.73338 0.05201,-0.052 2.991319,2.52786 6.531801,5.73304 l 6.437241,5.82762 0.0036,0.98835 c 0.0021,0.54359 0.140843,1.66935 0.308557,2.50169 l 0.304932,1.51334 -3.732998,6.66423 c -2.053151,3.66533 -3.743066,6.67904 -3.755366,6.69713 -0.0123,0.0181 -1.02783,-0.67617 -2.256732,-1.54281 z"
       id="path1045"
       inkscape:connector-curvature="0"
       inkscape:export-filename="/home/matthias/mpd_android/musicala/app/src/main/res/mipmap-mdpi/ic_launcher.png"
       inkscape:export-xdpi="6.3000002"
       inkscape:export-ydpi="6.3000002" />
    <path
       style="opacity:1;fill:url(#linearGradient1053);fill-opacity:1;stroke:none;stroke-width:0.71428573;stroke-miterlimit:4;stroke-dasharray:2.14285718, 0.71428573;stroke-dashoffset:0;stroke-opacity:1"
       d="m 79.658704,176.22917 c -0.726162,-0.64743 -3.555505,-3.20943 -6.287431,-5.69335 l -4.967142,-4.51622 0.321643,-0.49601 c 0.449008,-0.69242 2.952993,-3.54995 7.462798,-8.51649 l 3.850732,-4.24072 6.12312,-2.62278 c 4.01578,-1.72013 6.167387,-2.55116 6.251742,-2.41467 0.178001,0.28801 1.957152,16.57732 1.843076,16.8746 -0.05071,0.13215 -0.761671,0.43657 -1.579919,0.67649 -1.790801,0.5251 -4.00621,1.6055 -5.393269,2.63019 -2.65929,1.96453 -4.916202,5.20301 -5.728862,8.22042 -0.18896,0.70162 -0.395907,1.27567 -0.45988,1.27567 -0.06397,0 -0.710446,-0.52971 -1.436608,-1.17713 z"
       id="path1047"
       inkscape:connector-curvature="0"
       inkscape:export-filename="/home/matthias/mpd_android/musicala/app/src/main/res/mipmap-mdpi/ic_launcher.png"
       inkscape:export-xdpi="6.3000002"
       inkscape:export-ydpi="6.3000002" />
    <path
       style="opacity:1;fill:#673ab7;fill-opacity:1;stroke:none;stroke-width:0.71428573;stroke-miterlimit:4;stroke-dasharray:2.14285718, 0.71428573;stroke-dashoffset:0;stroke-opacity:1"
       d="m 87.662961,187.5995 c -0.588386,-0.0875 -1.453833,-0.33954 -1.923212,-0.56017 -1.172162,-0.55098 -2.668873,-2.19365 -3.394516,-3.72554 -0.58991,-1.24535 -0.604803,-1.34107 -0.595678,-3.82862 0.0052,-1.40324 0.09019,-2.73433 0.188989,-2.95798 0.177689,-0.40225 0.205865,-0.39613 2.608773,0.56696 l 2.429143,0.97361 2.739477,3.07636 c 2.286042,2.56717 2.755458,3.19552 2.836034,3.79625 0.261927,1.95281 -1.863534,3.10885 -4.88901,2.65913 z"
       id="path1055"
       inkscape:connector-curvature="0"
       inkscape:export-filename="/home/matthias/mpd_android/musicala/app/src/main/res/mipmap-mdpi/ic_launcher.png"
       inkscape:export-xdpi="6.3000002"
       inkscape:export-ydpi="6.3000002" />
    <path
       style="opacity:1;fill:url(#linearGradient1063);fill-opacity:1;stroke:none;stroke-width:0.71428573;stroke-miterlimit:4;stroke-dasharray:2.14285718, 0.71428573;stroke-dashoffset:0;stroke-opacity:1"
       d="m 84.594998,176.6492 c -1.236334,-0.51444 -2.289667,-0.97712 -2.340742,-1.0282 -0.196856,-0.19685 1.71006,-3.66078 2.658549,-4.82928 1.827956,-2.25197 4.948923,-4.22456 8.072183,-5.10198 1.835716,-0.51571 5.074312,-0.69121 7.196432,-0.38998 0.88901,0.1262 1.72745,0.29809 1.86318,0.38198 0.19261,0.11903 -0.0124,0.93537 -0.93372,3.71793 -0.64929,1.96098 -1.233687,3.6243 -1.298668,3.69627 -0.06498,0.072 -1.32619,0.043 -2.802686,-0.0643 l -2.68454,-0.19515 -3.492047,2.37939 c -1.920626,1.30867 -3.604101,2.37698 -3.741055,2.37402 -0.136956,-0.003 -1.260554,-0.42628 -2.496886,-0.94071 z"
       id="path1057"
       inkscape:connector-curvature="0"
       inkscape:export-filename="/home/matthias/mpd_android/musicala/app/src/main/res/mipmap-mdpi/ic_launcher.png"
       inkscape:export-xdpi="6.3000002"
       inkscape:export-ydpi="6.3000002" />
    <path
       style="opacity:1;fill:#f44336;fill-opacity:1;stroke:none;stroke-width:0.71428573;stroke-miterlimit:4;stroke-dasharray:2.14285718, 0.71428573;stroke-dashoffset:0;stroke-opacity:1"
       d="m 79.984789,176.41411 c -0.514704,-0.44176 -3.323026,-2.96586 -6.240716,-5.60912 l -5.30489,-4.80592 0.351903,-0.49421 c 0.493364,-0.69286 3.008625,-3.55241 7.439938,-8.4583 l 3.794845,-4.20127 4.825915,-2.0677 c 4.936072,-2.11491 7.389503,-3.09316 7.494429,-2.98824 0.163859,0.16386 1.772703,14.77033 1.772703,16.09412 0,0.7179 -0.06179,0.83682 -0.519716,1.00017 -2.304812,0.82221 -4.321416,1.71803 -5.461474,2.42611 -2.777323,1.72496 -5.606645,5.42017 -6.536854,8.5374 -0.224877,0.75359 -0.469931,1.37016 -0.544562,1.37016 -0.07463,0 -0.556819,-0.36144 -1.071521,-0.8032 z"
       id="path1065"
       inkscape:connector-curvature="0"
       inkscape:export-filename="/home/matthias/mpd_android/musicala/app/src/main/res/mipmap-mdpi/ic_launcher.png"
       inkscape:export-xdpi="6.3000002"
       inkscape:export-ydpi="6.3000002" />
    <path
       style="opacity:1;fill:#f44336;fill-opacity:1;stroke:none;stroke-width:0.71428573;stroke-miterlimit:4;stroke-dasharray:2.14285718, 0.71428573;stroke-dashoffset:0;stroke-opacity:1"
       d="m 143.55775,201.42624 -6.20775,-6.20989 -0.13652,-6.68441 -0.13651,-6.68442 -4.95541,-9.89959 c -2.72547,-5.44477 -4.88584,-9.96152 -4.80082,-10.03722 0.085,-0.0757 3.80421,-1.04615 8.26486,-2.15657 6.37999,-1.5882 8.1456,-1.96679 8.27578,-1.77453 0.81756,1.20737 2.47595,4.20446 3.36293,6.0776 6.08716,12.85481 7.24334,27.47804 3.27439,41.41382 -0.26643,0.93549 -0.54039,1.80534 -0.6088,1.933 -0.0787,0.14683 -2.4052,-2.04948 -6.33215,-5.97779 z"
       id="path1067"
       inkscape:connector-curvature="0"
       inkscape:export-filename="/home/matthias/mpd_android/musicala/app/src/main/res/mipmap-mdpi/ic_launcher.png"
       inkscape:export-xdpi="6.3000002"
       inkscape:export-ydpi="6.3000002" />
    <path
       style="opacity:1;fill:#f44336;fill-opacity:1;stroke:none;stroke-width:0.71428573;stroke-miterlimit:4;stroke-dasharray:2.14285718, 0.71428573;stroke-dashoffset:0;stroke-opacity:1"
       d="m 46.493916,213.38587 -7.654017,-7.97674 -0.136522,-1.00848 c -0.139804,-1.03273 -1.542095,-49.29593 -1.434754,-49.38043 0.03266,-0.0257 3.773712,0.63587 8.313462,1.47018 l 8.25409,1.51692 -0.560538,1.11042 c -2.297589,4.5515 -3.96398,10.41614 -4.525312,15.92621 -0.308948,3.03267 -0.130656,7.99693 0.397071,11.0558 0.970023,5.62255 3.129428,11.20616 6.048079,15.63863 l 0.902118,1.37001 -0.912908,8.64636 c -0.5021,4.75549 -0.940774,8.86269 -0.974828,9.1271 -0.05413,0.42026 -1.025345,-0.52328 -7.715941,-7.49598 z"
       id="path1069"
       inkscape:connector-curvature="0"
       inkscape:export-filename="/home/matthias/mpd_android/musicala/app/src/main/res/mipmap-mdpi/ic_launcher.png"
       inkscape:export-xdpi="6.3000002"
       inkscape:export-ydpi="6.3000002" />
    <path
       style="opacity:1;fill:#f44336;fill-opacity:1;stroke:none;stroke-width:0.71428573;stroke-miterlimit:4;stroke-dasharray:2.14285718, 0.71428573;stroke-dashoffset:0;stroke-opacity:1"
       d="m 144.93622,138.97008 -21.65963,-22.91383 -1.58591,0.15184 c -41.209061,3.94544 -57.06758,5.44613 -57.525709,5.44362 l -0.567632,-0.003 -2.078868,-6.52754 c -1.143378,-3.59015 -2.105649,-6.64663 -2.138381,-6.79219 -0.120533,-0.53603 6.420678,-3.44899 11.68228,-5.2024 9.014153,-3.00393 16.819629,-4.250881 26.458333,-4.226811 9.291047,0.0232 17.468477,1.314531 26.269347,4.148271 23.77266,7.65443 43.93527,25.48321 54.14713,47.87958 1.02995,2.25884 1.05555,2.35344 0.72187,2.66761 -0.41337,0.38922 -11.60221,8.14343 -11.87421,8.2292 -0.10394,0.0328 -9.93582,-10.25163 -21.84862,-22.85424 z"
       id="path1071"
       inkscape:connector-curvature="0"
       inkscape:export-filename="/home/matthias/mpd_android/musicala/app/src/main/res/mipmap-mdpi/ic_launcher.png"
       inkscape:export-xdpi="6.3000002"
       inkscape:export-ydpi="6.3000002" />
    <path
       style="opacity:1;fill:url(#linearGradient1079);fill-opacity:1;stroke:none;stroke-width:0.71428573;stroke-miterlimit:4;stroke-dasharray:2.14285718, 0.71428573;stroke-dashoffset:0;stroke-opacity:1"
       d="m 92.944248,185.10757 c -0.04975,-0.79073 0.19459,-2.88863 0.739166,-6.34654 0.447413,-2.84095 0.81348,-5.25022 0.81348,-5.35393 0,-0.10371 0.233871,-0.14415 0.519716,-0.0899 0.285845,0.0543 1.49982,0.15327 2.697721,0.21998 l 2.177999,0.12129 3.15066,3.93786 3.15066,3.93785 -0.50947,0.18264 c -0.2802,0.10044 -3.22002,1.17022 -6.532926,2.37726 -3.312907,1.20705 -6.048042,2.19463 -6.07808,2.19463 -0.03004,0 -0.08805,-0.53153 -0.128926,-1.18117 z"
       id="path1073"
       inkscape:connector-curvature="0"
       inkscape:export-filename="/home/matthias/mpd_android/musicala/app/src/main/res/mipmap-mdpi/ic_launcher.png"
       inkscape:export-xdpi="6.3000002"
       inkscape:export-ydpi="6.3000002" />
    <path
       style="opacity:1;fill:#3f51b5;fill-opacity:1;stroke:none;stroke-width:0.71428573;stroke-miterlimit:4;stroke-dasharray:2.14285718, 0.71428573;stroke-dashoffset:0;stroke-opacity:1"
       d="m 84.516253,176.51264 c -2.524938,-1.03792 -2.480284,-0.84717 -0.847725,-3.62112 1.645488,-2.79592 3.378596,-4.41413 6.301972,-5.88416 2.708156,-1.36181 3.825232,-1.6018 7.455707,-1.6018 1.767041,0 3.537393,0.0687 3.934123,0.15267 0.69199,0.14646 0.71613,0.1772 0.59362,0.75595 -0.17494,0.82646 -1.94599,6.2104 -2.149718,6.53506 -0.136517,0.21756 -0.609804,0.23108 -2.78316,0.0795 l -2.618674,-0.18264 -3.499786,2.3301 c -1.924881,1.28156 -3.668297,2.32674 -3.874254,2.32262 -0.20596,-0.004 -1.336406,-0.40289 -2.512105,-0.88618 z"
       id="path1081"
       inkscape:connector-curvature="0"
       inkscape:export-filename="/home/matthias/mpd_android/musicala/app/src/main/res/mipmap-mdpi/ic_launcher.png"
       inkscape:export-xdpi="6.3000002"
       inkscape:export-ydpi="6.3000002" />
    <path
       style="opacity:1;fill:#3f51b5;fill-opacity:1;stroke:none;stroke-width:0.71428573;stroke-miterlimit:4;stroke-dasharray:2.14285718, 0.71428573;stroke-dashoffset:0;stroke-opacity:1"
       d="m 74.694435,171.54398 c -3.3489,-3.01639 -6.088912,-5.5373 -6.088912,-5.60202 0,-0.22579 5.378294,-6.35735 9.784948,-11.15538 l 1.768457,-1.92552 4.691835,-1.99681 c 5.769721,-2.45555 7.206294,-3.00148 7.387624,-2.80751 0.177567,0.18995 0.98784,7.14787 1.778238,15.26995 0.05057,0.51972 0.0305,1.03959 -0.04462,1.15526 -0.07512,0.11568 -0.944499,0.52946 -1.931961,0.9195 -3.04112,1.20125 -4.321241,1.9644 -6.01513,3.58599 -2.27472,2.17763 -3.695297,4.44991 -4.820203,7.71015 -0.06276,0.18191 -0.183245,0.33073 -0.267739,0.33073 -0.0845,0 -2.893637,-2.46795 -6.24254,-5.48434 z"
       id="path1083"
       inkscape:connector-curvature="0"
       inkscape:export-filename="/home/matthias/mpd_android/musicala/app/src/main/res/mipmap-mdpi/ic_launcher.png"
       inkscape:export-xdpi="6.3000002"
       inkscape:export-ydpi="6.3000002" />
    <path
       style="opacity:1;fill:#009688;fill-opacity:1;stroke:none;stroke-width:0.71428573;stroke-miterlimit:4;stroke-dasharray:2.14285718, 0.71428573;stroke-dashoffset:0;stroke-opacity:1"
       d="m 77.759461,174.17207 c -4.838583,-4.29787 -8.964948,-8.1079 -8.964948,-8.27766 0,-0.21078 4.288276,-5.15026 8.217847,-9.46579 l 3.183593,-3.49628 4.292293,-1.82301 c 5.126429,-2.17728 7.512693,-3.09829 7.65605,-2.95493 0.210664,0.21066 1.785633,13.9915 1.785633,15.62412 v 0.73817 l -2.126117,0.88624 c -3.024677,1.26081 -4.554805,2.27163 -6.444372,4.25724 -1.768729,1.85863 -2.887504,3.57579 -3.71438,5.70104 -0.293788,0.7551 -0.610573,1.39838 -0.703968,1.42951 -0.0934,0.0311 -1.525128,-1.14726 -3.181631,-2.61865 z"
       id="path1085"
       inkscape:connector-curvature="0"
       inkscape:export-filename="/home/matthias/mpd_android/musicala/app/src/main/res/mipmap-mdpi/ic_launcher.png"
       inkscape:export-xdpi="6.3000002"
       inkscape:export-ydpi="6.3000002" />
    <path
       style="opacity:1;fill:url(#linearGradient1093);fill-opacity:1;stroke:none;stroke-width:0.71428573;stroke-miterlimit:4;stroke-dasharray:2.14285718, 0.71428573;stroke-dashoffset:0;stroke-opacity:1"
       d="m 79.264943,175.38532 c -3.966758,-3.35993 -10.281444,-9.23832 -10.281444,-9.57107 0,-0.22318 3.477229,-4.2451 7.787714,-9.00765 l 3.506513,-3.87426 2.904598,-1.21639 c 5.541912,-2.32085 8.309036,-3.41381 8.642977,-3.41381 0.280567,0 0.373959,0.28697 0.568907,1.74813 0.286406,2.14667 1.271707,11.05271 1.437444,12.99294 l 0.121076,1.41741 -2.201889,0.91973 c -2.784258,1.163 -4.547669,2.342 -6.39519,4.27578 -1.719538,1.79982 -2.614557,3.1293 -3.608721,5.36046 -0.400389,0.89857 -0.786593,1.63376 -0.858235,1.63376 -0.07164,0 -0.802325,-0.56926 -1.62375,-1.26503 z"
       id="path1087"
       inkscape:connector-curvature="0"
       inkscape:export-filename="/home/matthias/mpd_android/musicala/app/src/main/res/mipmap-mdpi/ic_launcher.png"
       inkscape:export-xdpi="6.3000002"
       inkscape:export-ydpi="6.3000002" />
    <path
       style="opacity:1;fill:#ffeb3b;fill-opacity:1;stroke:none;stroke-width:0.71428573;stroke-miterlimit:4;stroke-dasharray:2.14285718, 0.71428573;stroke-dashoffset:0;stroke-opacity:1"
       d="m 83.140112,219.07526 c -1.837483,-0.25082 -5.677672,-1.10959 -6.117068,-1.36795 -0.167148,-0.0983 1.529196,-2.40012 5.595143,-7.59228 3.209256,-4.09819 5.855391,-7.47094 5.880296,-7.495 0.0249,-0.0241 1.855642,-0.23982 4.068297,-0.47944 2.212657,-0.23963 4.090553,-0.48128 4.173101,-0.537 0.08255,-0.0557 2.177809,-3.10132 4.656139,-6.76799 2.47832,-3.66668 4.56328,-6.60072 4.63323,-6.52009 0.40587,0.46782 9.8233,14.64525 9.8233,14.78845 0,0.0954 -0.61029,1.09228 -1.35619,2.21523 -1.72157,2.59178 -5.6974,6.62584 -8.19956,8.31962 -5.58983,3.78392 -12.162811,5.75942 -18.976496,5.70338 -1.30202,-0.0107 -3.183107,-0.13084 -4.180192,-0.26693 z"
       id="path1095"
       inkscape:connector-curvature="0"
       inkscape:export-filename="/home/matthias/mpd_android/musicala/app/src/main/res/mipmap-mdpi/ic_launcher.png"
       inkscape:export-xdpi="6.3000002"
       inkscape:export-ydpi="6.3000002" />
    <path
       style="opacity:1;fill:#ffeb3b;fill-opacity:1;stroke:none;stroke-width:0.71428573;stroke-miterlimit:4;stroke-dasharray:2.14285718, 0.71428573;stroke-dashoffset:0;stroke-opacity:1"
       d="m 56.503045,245.11662 c -5.249394,-2.63308 -9.899054,-5.6562 -14.496724,-9.42549 -2.204127,-1.80701 -6.634038,-6.15525 -8.64585,-8.48647 -2.807081,-3.25274 -6.075252,-7.90019 -8.189263,-11.64541 l -0.599497,-1.06208 6.671641,-4.26848 c 3.669403,-2.34766 6.805437,-4.31982 6.968963,-4.38257 0.213889,-0.0821 2.503226,2.18277 8.158173,8.07088 l 7.860853,8.18499 11.061348,5.64914 c 6.083742,3.10703 11.055723,5.7009 11.048846,5.76414 -0.01953,0.1796 -16.367767,12.95966 -16.653581,13.01876 -0.139859,0.0289 -1.573067,-0.60892 -3.184909,-1.41741 z"
       id="path1097"
       inkscape:connector-curvature="0"
       inkscape:export-filename="/home/matthias/mpd_android/musicala/app/src/main/res/mipmap-mdpi/ic_launcher.png"
       inkscape:export-xdpi="6.3000002"
       inkscape:export-ydpi="6.3000002" />
    <path
       style="opacity:1;fill:url(#linearGradient1091);fill-opacity:1;stroke:none;stroke-width:0.71428573;stroke-miterlimit:4;stroke-dasharray:2.14285718, 0.71428573;stroke-dashoffset:0;stroke-opacity:1"
       d="m 157.8127,218.09052 c -5.47792,-1.78323 -10.00702,-3.29232 -10.06467,-3.35353 -0.0576,-0.0612 0.27436,-1.01633 0.73779,-2.12248 5.83842,-13.9354 6.31434,-29.74871 1.31076,-43.5522 -2.89124,-7.97613 -7.13015,-14.65197 -13.11256,-20.65091 -4.65916,-4.67204 -9.35558,-8.06428 -15.11944,-10.92085 l -3.30769,-1.63929 2.40588,-9.16592 c 1.32323,-5.04126 2.47445,-9.32332 2.55827,-9.51569 0.12622,-0.28971 3.85161,3.5598 21.69446,22.41727 l 21.54208,22.76704 0.80489,28.70401 c 0.44269,15.7872 0.82422,29.06545 0.84784,29.50721 0.0241,0.45042 -0.0406,0.79537 -0.1474,0.78538 -0.10469,-0.01 -4.67228,-1.47681 -10.15021,-3.26004 z"
       id="path1125"
       inkscape:connector-curvature="0"
       inkscape:export-filename="/home/matthias/mpd_android/musicala/app/src/main/res/mipmap-mdpi/ic_launcher.png"
       inkscape:export-xdpi="6.3000002"
       inkscape:export-ydpi="6.3000002" />
    <path
       style="opacity:1;fill:url(#linearGradient1061);fill-opacity:1;stroke:none;stroke-width:0.71428573;stroke-miterlimit:4;stroke-dasharray:2.14285718, 0.71428573;stroke-dashoffset:0;stroke-opacity:1"
       d="m 72.824773,147.79743 -6.690349,-4.36775 0.698981,-0.60422 c 1.264224,-1.09284 4.142214,-3.06373 6.187766,-4.23747 9.79185,-5.61861 21.892135,-7.69053 33.235769,-5.69094 1.5992,0.2819 1.78879,0.35734 1.73506,0.69041 -0.0332,0.20566 -0.73479,3.24149 -1.55915,6.74629 -0.82435,3.5048 -1.49883,6.43071 -1.49883,6.50203 0,0.0713 -2.74269,0.0705 -6.094864,-0.002 l -6.094865,-0.13143 -6.357289,2.74808 c -3.496508,1.51145 -6.473071,2.74054 -6.614583,2.73132 -0.141512,-0.009 -3.267953,-1.98227 -6.947646,-4.38453 z"
       id="path1127"
       inkscape:connector-curvature="0"
       inkscape:export-filename="/home/matthias/mpd_android/musicala/app/src/main/res/mipmap-mdpi/ic_launcher.png"
       inkscape:export-xdpi="6.3000002"
       inkscape:export-ydpi="6.3000002" />
    <path
       style="opacity:1;fill:url(#linearGradient1061);fill-opacity:1;stroke:none;stroke-width:0.71428573;stroke-miterlimit:4;stroke-dasharray:2.14285718, 0.71428573;stroke-dashoffset:0;stroke-opacity:1"
       d="m 79.137147,151.73593 c -0.207886,-0.1397 -2.29148,-1.48176 -4.630209,-2.98235 -2.338726,-1.5006 -5.13825,-3.31108 -6.221163,-4.02329 l -1.968934,-1.29493 0.74051,-0.64557 c 1.095246,-0.95482 3.888494,-2.86231 5.994302,-4.09346 7.855307,-4.59256 18.337514,-6.99709 27.660807,-6.34515 2.61917,0.18315 6.95539,0.78476 7.16466,0.99403 0.0441,0.0441 -0.54765,2.79462 -1.31497,6.1123 -0.76732,3.31768 -1.45431,6.30854 -1.52665,6.64636 l -0.13151,0.61421 h -6.190111 -6.19011 l -6.171573,2.64583 c -3.394366,1.45521 -6.321311,2.64138 -6.504323,2.63592 -0.183012,-0.005 -0.502838,-0.12421 -0.710726,-0.2639 z"
       id="path1129"
       inkscape:connector-curvature="0"
       inkscape:export-filename="/home/matthias/mpd_android/musicala/app/src/main/res/mipmap-mdpi/ic_launcher.png"
       inkscape:export-xdpi="6.3000002"
       inkscape:export-ydpi="6.3000002" />
    <path
       style="opacity:1;fill:url(#linearGradient1061);fill-opacity:1;stroke:none;stroke-width:0.71428573;stroke-miterlimit:4;stroke-dasharray:2.14285718, 0.71428573;stroke-dashoffset:0;stroke-opacity:1"
       d="M 74.223458,216.75435 C 68.812909,214.55643 63.61272,210.9868 59.67862,206.77018 l -1.632072,-1.74927 5.587568,-5.52791 c 3.073165,-3.04034 5.667614,-5.5279 5.765446,-5.5279 0.09783,0 1.18791,0.7173 2.4224,1.59399 l 2.244524,1.59399 6.787563,2.5798 c 3.73316,1.41888 6.852454,2.64171 6.931766,2.7174 0.216765,0.20684 -11.380237,14.95237 -11.745071,14.9338 -0.16796,-0.009 -0.98574,-0.29193 -1.817286,-0.62973 z"
       id="path1131"
       inkscape:connector-curvature="0"
       inkscape:export-filename="/home/matthias/mpd_android/musicala/app/src/main/res/mipmap-mdpi/ic_launcher.png"
       inkscape:export-xdpi="6.3000002"
       inkscape:export-ydpi="6.3000002" />
    <path
       style="opacity:1;fill:url(#linearGradient1061);fill-opacity:1;stroke:none;stroke-width:0.71428573;stroke-miterlimit:4;stroke-dasharray:2.14285718, 0.71428573;stroke-dashoffset:0;stroke-opacity:1"
       d="m 120.73001,241.83388 c 0.0465,-1.12154 0.17105,-5.56061 0.27683,-9.86459 l 0.19234,-7.82543 1.64755,-1.88938 c 0.90616,-1.03916 2.92323,-3.36292 4.48238,-5.16393 l 2.83482,-3.27454 3.49628,-8.98022 c 1.92296,-4.93912 3.53929,-8.98035 3.59185,-8.98051 0.0526,-1.6e-4 2.87599,2.78492 6.27428,6.18906 l 6.17871,6.18936 -0.93962,2.45685 c -5.24058,13.70275 -14.71892,25.02495 -27.42395,32.75884 l -0.69597,0.42365 z"
       id="path1133"
       inkscape:connector-curvature="0"
       inkscape:export-filename="/home/matthias/mpd_android/musicala/app/src/main/res/mipmap-mdpi/ic_launcher.png"
       inkscape:export-xdpi="6.3000002"
       inkscape:export-ydpi="6.3000002" />
    <path
       style="opacity:1;fill:url(#linearGradient1137);fill-opacity:1;stroke:none;stroke-width:0.71428573;stroke-miterlimit:4;stroke-dasharray:2.14285718, 0.71428573;stroke-dashoffset:0;stroke-opacity:1"
       d="m 81.452251,199.49358 c -3.715978,-1.41885 -6.756324,-2.63901 -6.756324,-2.71147 0,-0.14592 6.964768,-12.64732 7.183009,-12.89313 0.07532,-0.0848 0.357892,0.22276 0.627933,0.68355 0.270039,0.46079 0.968031,1.27379 1.551088,1.80667 0.853303,0.77987 1.324687,1.04503 2.416376,1.35924 0.745945,0.2147 1.464972,0.44912 1.597832,0.52094 0.324382,0.17534 8.214426,12.9686 8.029874,13.01998 -0.303331,0.0845 -7.070582,0.8118 -7.472026,0.80309 -0.231791,-0.005 -3.461782,-1.17001 -7.177762,-2.58887 z"
       id="path1135"
       inkscape:connector-curvature="0"
       inkscape:export-filename="/home/matthias/mpd_android/musicala/app/src/main/res/mipmap-mdpi/ic_launcher.png"
       inkscape:export-xdpi="6.3000002"
       inkscape:export-ydpi="6.3000002" />
    <path
       style="opacity:1;fill:url(#linearGradient1145);fill-opacity:1;stroke:none;stroke-width:0.71428573;stroke-miterlimit:4;stroke-dasharray:2.14285718, 0.71428573;stroke-dashoffset:0;stroke-opacity:1"
       d="m 45.402772,156.04198 c -4.348004,-0.80387 -7.818078,-1.53202 -7.787068,-1.63399 0.04063,-0.1336 23.577332,-29.28416 25.740939,-31.88053 0.250597,-0.30073 3.713413,-0.66787 29.852633,-3.1651 16.263034,-1.5537 29.587254,-2.80682 29.609374,-2.78469 0.0477,0.0476 -4.88485,18.89931 -4.97598,19.01781 -0.0344,0.0447 -0.72045,-0.15615 -1.52463,-0.44632 -6.63336,-2.39351 -12.14831,-3.38284 -18.849047,-3.38134 -5.947952,0.001 -10.234004,0.68329 -15.780506,2.51086 -11.099869,3.65741 -20.451903,11.13658 -26.377125,21.09477 -1.001771,1.68362 -1.369854,2.15356 -1.674773,2.13823 -0.214945,-0.0108 -3.920164,-0.67217 -8.233817,-1.4697 z"
       id="path1143"
       inkscape:connector-curvature="0"
       inkscape:export-filename="/home/matthias/mpd_android/musicala/app/src/main/res/mipmap-mdpi/ic_launcher.png"
       inkscape:export-xdpi="6.3000002"
       inkscape:export-ydpi="6.3000002" />
    <path
       style="opacity:1;fill:url(#linearGradient1149);fill-opacity:1;stroke:none;stroke-width:0.71428573;stroke-miterlimit:4;stroke-dasharray:2.14285718, 0.71428573;stroke-dashoffset:0;stroke-opacity:1"
       d="m 84.806792,176.61202 c -1.039437,-0.40885 -1.990739,-0.88097 -2.114005,-1.04914 -0.275262,-0.37555 -0.110988,-0.85452 0.834255,-2.43241 1.77529,-2.96349 3.655372,-4.69889 6.760403,-6.24016 2.42711,-1.20477 3.539839,-1.41585 7.465031,-1.41611 3.811564,-2.4e-4 4.157734,0.0547 4.157734,0.66006 0,0.50024 -1.60925,5.59411 -2.019131,6.39128 l -0.27591,0.53662 -2.626696,-0.13534 -2.626696,-0.13533 -2.887613,1.88 c -3.691233,2.4032 -4.198455,2.70573 -4.516318,2.69374 -0.143645,-0.005 -1.11162,-0.34436 -2.151054,-0.75321 z"
       id="path1147"
       inkscape:connector-curvature="0"
       inkscape:export-filename="/home/matthias/mpd_android/musicala/app/src/main/res/mipmap-mdpi/ic_launcher.png"
       inkscape:export-xdpi="6.3000002"
       inkscape:export-ydpi="6.3000002" />
    <path
       style="opacity:1;fill:url(#linearGradient1153);fill-opacity:1;stroke:none;stroke-width:0.71428573;stroke-miterlimit:4;stroke-dasharray:2.14285718, 0.71428573;stroke-dashoffset:0;stroke-opacity:1"
       d="m 71.911228,194.94357 c -1.359136,-0.96677 -2.157177,-1.66227 -2.217537,-1.93262 -0.08443,-0.37815 -0.668795,-10.01578 -1.245989,-20.54956 -0.11676,-2.13084 -0.183171,-4.24001 -0.147582,-4.68705 l 0.06471,-0.81279 3.038422,2.70267 c 8.234971,7.325 9.52592,8.54932 9.525399,9.03378 -2.64e-4,0.25986 0.139253,1.40894 0.310073,2.55352 l 0.310584,2.08105 -3.662923,6.56086 c -2.014609,3.60847 -3.705447,6.56077 -3.75742,6.56065 -0.05197,-1.2e-4 -1.049951,-0.67985 -2.217734,-1.51051 z"
       id="path1151"
       inkscape:connector-curvature="0"
       inkscape:export-filename="/home/matthias/mpd_android/musicala/app/src/main/res/mipmap-mdpi/ic_launcher.png"
       inkscape:export-xdpi="6.3000002"
       inkscape:export-ydpi="6.3000002" />
    <path
       style="opacity:1;fill:url(#linearGradient1061);fill-opacity:1;stroke:none;stroke-width:0.71428573;stroke-miterlimit:4;stroke-dasharray:2.14285718, 0.71428573;stroke-dashoffset:0;stroke-opacity:1"
       d="m 94.860045,198.1248 c -6.756376,-10.90436 -6.174324,-9.87763 -5.631455,-9.9338 1.079423,-0.11168 2.226247,-0.46669 2.854243,-0.88354 0.741709,-0.49233 13.948887,-5.3069 14.111537,-5.14425 0.0572,0.0572 -0.0351,1.32023 -0.20521,2.80669 l -0.30924,2.70265 -3.05904,4.5369 c -1.68247,2.4953 -3.713993,5.49739 -4.514498,6.67131 l -1.455467,2.13439 z"
       id="path1155"
       inkscape:connector-curvature="0"
       inkscape:export-filename="/home/matthias/mpd_android/musicala/app/src/main/res/mipmap-mdpi/ic_launcher.png"
       inkscape:export-xdpi="6.3000002"
       inkscape:export-ydpi="6.3000002" />
    <path
       style="opacity:1;fill:url(#linearGradient1159);fill-opacity:1;stroke:none;stroke-width:0.71428573;stroke-miterlimit:4;stroke-dasharray:2.14285718, 0.71428573;stroke-dashoffset:0;stroke-opacity:1"
       d="m 97.367787,227.2481 c -2.438979,-4.16864 -4.457266,-7.6387 -4.485079,-7.71123 -0.02781,-0.0725 0.732036,-0.2819 1.688553,-0.46526 5.109805,-0.97954 10.664859,-3.68741 14.727639,-7.17916 l 1.43556,-1.23379 9.31534,1.58989 c 5.12343,0.87443 9.33737,1.6137 9.36431,1.64281 0.0269,0.0291 -1.86396,2.26408 -4.20198,4.96661 l -4.25097,4.91369 -9.47823,5.51959 c -5.21302,3.03578 -9.52377,5.52334 -9.57943,5.52791 -0.0557,0.005 -2.096736,-3.40241 -4.535713,-7.57106 z"
       id="path1157"
       inkscape:connector-curvature="0"
       inkscape:export-filename="/home/matthias/mpd_android/musicala/app/src/main/res/mipmap-mdpi/ic_launcher.png"
       inkscape:export-xdpi="6.3000002"
       inkscape:export-ydpi="6.3000002" />
    <path
       style="opacity:1;fill:url(#linearGradient1163);fill-opacity:1;stroke:none;stroke-width:0.71428573;stroke-miterlimit:4;stroke-dasharray:2.14285718, 0.71428573;stroke-dashoffset:0;stroke-opacity:1"
       d="m 96.189831,200.1143 c -2.521202,-4.04231 -6.06289,-9.81848 -6.545787,-10.67557 -0.667435,-1.18463 -0.708731,-1.10655 0.737894,-1.395 0.363802,-0.0725 1.04416,-0.3235 1.511906,-0.55769 1.924145,-0.96338 13.944306,-5.30108 14.141986,-5.10339 0.0572,0.0572 -0.001,1.22884 -0.12987,2.60365 l -0.23388,2.49965 -3.9965,5.95312 c -2.198077,3.27422 -4.230249,6.27807 -4.515935,6.67523 l -0.519435,0.72211 z"
       id="path1161"
       inkscape:connector-curvature="0"
       inkscape:export-filename="/home/matthias/mpd_android/musicala/app/src/main/res/mipmap-mdpi/ic_launcher.png"
       inkscape:export-xdpi="6.3000002"
       inkscape:export-ydpi="6.3000002" />
    <path
       style="opacity:1;fill:url(#linearGradient1167);fill-opacity:1;stroke:none;stroke-width:0.71428573;stroke-miterlimit:4;stroke-dasharray:2.14285718, 0.71428573;stroke-dashoffset:0;stroke-opacity:1"
       d="m 84.901285,176.55767 c -1.930974,-0.8174 -2.267858,-1.02968 -2.267858,-1.42906 0,-0.51957 1.853581,-3.46487 2.985336,-4.74364 1.240079,-1.40117 3.938707,-3.20404 5.974112,-3.99112 1.282478,-0.49593 1.956551,-0.62317 4.175226,-0.78814 2.882921,-0.21436 5.869989,-0.0592 6.012559,0.31239 0.11146,0.29044 -0.99292,4.14901 -1.67539,5.85363 l -0.518359,1.29472 -1.153454,-0.11122 c -0.634399,-0.0612 -1.833811,-0.12589 -2.665356,-0.14381 l -1.511906,-0.0326 -3.401785,2.20238 c -2.494034,1.61468 -3.553079,2.19892 -3.96875,2.18942 -0.31183,-0.007 -1.204799,-0.28296 -1.984375,-0.61297 z"
       id="path1165"
       inkscape:connector-curvature="0"
       inkscape:export-filename="/home/matthias/mpd_android/musicala/app/src/main/res/mipmap-mdpi/ic_launcher.png"
       inkscape:export-xdpi="6.3000002"
       inkscape:export-ydpi="6.3000002" />
    <path
       style="opacity:1;fill:url(#linearGradient1171);fill-opacity:1;stroke:none;stroke-width:0.71428573;stroke-miterlimit:4;stroke-dasharray:2.14285718, 0.71428573;stroke-dashoffset:0;stroke-opacity:1"
       d="m 22.965456,211.25606 c -3.431418,-7.1723 -5.566732,-14.47863 -6.698397,-22.91967 -0.348045,-2.59605 -0.419976,-4.05202 -0.429492,-8.69345 -0.01536,-7.492 0.529636,-12.21892 2.178414,-18.89403 4.895573,-19.81983 17.329468,-37.35737 34.473846,-48.62405 2.527562,-1.66103 6.29117,-3.84109 6.404663,-3.70989 0.0925,0.10694 4.27428,13.2737 4.273674,13.4561 -1.88e-4,0.0841 -5.943198,7.48755 -13.206484,16.45203 l -13.205975,16.29906 0.727122,24.55838 c 0.399918,13.50711 0.728292,24.89856 0.729726,25.31433 l 0.0026,0.75595 -6.814947,4.34673 c -3.74822,2.3907 -6.878809,4.37018 -6.956864,4.39884 -0.07805,0.0286 -0.743108,-1.20449 -1.477895,-2.74033 z"
       id="path1169"
       inkscape:connector-curvature="0"
       inkscape:export-filename="/home/matthias/mpd_android/musicala/app/src/main/res/mipmap-mdpi/ic_launcher.png"
       inkscape:export-xdpi="6.3000002"
       inkscape:export-ydpi="6.3000002" />
    <path
       style="opacity:1;fill:url(#linearGradient1061);fill-opacity:1;stroke:none;stroke-width:0.71428573;stroke-miterlimit:4;stroke-dasharray:2.14285718, 0.71428573;stroke-dashoffset:0;stroke-opacity:1"
       d="m 24.156771,213.4265 c -0.466344,-0.71251 -2.171925,-4.44633 -3.130288,-6.85276 -2.146074,-5.38873 -3.532016,-10.65837 -4.572844,-17.3869 -0.401067,-2.59274 -0.437546,-3.4239 -0.427168,-9.73289 0.01272,-7.73465 0.180166,-9.6677 1.323799,-15.28253 3.950839,-19.39717 14.818478,-36.67387 30.667363,-48.75308 3.912804,-2.98214 10.471322,-7.05918 10.80362,-6.71597 0.17594,0.18171 3.888761,11.71355 4.079335,12.6702 0.131408,0.65965 -0.631534,1.6357 -18.809588,24.06352 l -7.429103,9.16593 0.122901,3.77976 c 0.120211,3.69691 1.17783,40.41631 1.28682,44.67684 l 0.05511,2.15451 -6.3311,4.04221 c -7.900887,5.04447 -7.286759,4.70913 -7.638859,4.17116 z"
       id="path1173"
       inkscape:connector-curvature="0"
       inkscape:export-filename="/home/matthias/mpd_android/musicala/app/src/main/res/mipmap-mdpi/ic_launcher.png"
       inkscape:export-xdpi="6.3000002"
       inkscape:export-ydpi="6.3000002" />
    <path
       style="opacity:1;fill:#5d4037;fill-opacity:1;stroke:none;stroke-width:0.71428573;stroke-miterlimit:4;stroke-dasharray:2.14285718, 0.71428573;stroke-dashoffset:0;stroke-opacity:1"
       d="m 90.045108,180.82353 c -1.259989,-1.4289 -2.284389,-2.68305 -2.276449,-2.78699 0.02125,-0.27818 6.204133,-4.45749 6.203611,-4.19332 -7.93e-4,0.4178 -1.475173,9.4172 -1.556043,9.49807 -0.04413,0.0441 -1.111134,-1.08886 -2.371119,-2.51776 z"
       id="path1175"
       inkscape:connector-curvature="0"
       inkscape:export-filename="/home/matthias/mpd_android/musicala/app/src/main/res/mipmap-mdpi/ic_launcher.png"
       inkscape:export-xdpi="6.3000002"
       inkscape:export-ydpi="6.3000002" />
    <path
       style="opacity:1;fill:#303f9f;fill-opacity:1;stroke:none;stroke-width:0.71428573;stroke-miterlimit:4;stroke-dasharray:2.14285718, 0.71428573;stroke-dashoffset:0;stroke-opacity:1"
       d="m 56.689987,203.119 c -4.71736,-6.55748 -7.330295,-14.29239 -7.643175,-22.62562 -0.475888,-12.67476 5.100939,-25.85287 14.857164,-35.10765 1.018063,-0.96574 1.839637,-1.60469 1.969762,-1.53191 1.33664,0.74761 13.357904,8.6645 13.357904,8.79718 0,0.14494 -8.767093,9.98861 -11.089989,12.45181 l -0.635053,0.6734 0.759844,12.95 c 0.417912,7.1225 0.759841,13.37738 0.759841,13.89975 v 0.94976 l -5.643377,5.50112 -5.643375,5.50111 z"
       id="path1177"
       inkscape:connector-curvature="0"
       inkscape:export-filename="/home/matthias/mpd_android/musicala/app/src/main/res/mipmap-mdpi/ic_launcher.png"
       inkscape:export-xdpi="6.3000002"
       inkscape:export-ydpi="6.3000002" />
    <path
       style="opacity:1;fill:#303f9f;fill-opacity:1;stroke:none;stroke-width:0.71428573;stroke-miterlimit:4;stroke-dasharray:2.14285718, 0.71428573;stroke-dashoffset:0;stroke-opacity:1"
       d="m 111.1475,195.12433 -4.99512,-7.4494 0.2274,-2.17336 c 0.12508,-1.19535 0.27745,-2.56493 0.33862,-3.04351 l 0.11121,-0.87015 -3.28849,-4.11192 -3.28849,-4.11191 1.23302,-3.71139 c 0.67815,-2.04126 1.24937,-3.73247 1.26935,-3.75823 0.02,-0.0258 0.64179,0.15909 1.38178,0.41077 3.99884,1.3601 8.05453,4.36027 10.7884,7.98067 1.27886,1.69355 3.10348,5.3913 3.7158,7.5304 0.81539,2.84848 1.08433,5.13488 0.967,8.22098 -0.15347,4.037 -1.08567,7.79537 -2.76176,11.13467 l -0.70359,1.40177 z"
       id="path1179"
       inkscape:connector-curvature="0"
       inkscape:export-filename="/home/matthias/mpd_android/musicala/app/src/main/res/mipmap-mdpi/ic_launcher.png"
       inkscape:export-xdpi="6.3000002"
       inkscape:export-ydpi="6.3000002" />
    <path
       style="opacity:1;fill:#303f9f;fill-opacity:1;stroke:none;stroke-width:0.71428573;stroke-miterlimit:4;stroke-dasharray:2.14285718, 0.71428573;stroke-dashoffset:0;stroke-opacity:1"
       d="M 88.964528,234.07825 76.869292,233.1864 65.90798,227.56654 c -6.028719,-3.09092 -11.040644,-5.69678 -11.137611,-5.79081 -0.177885,-0.1725 1.589174,-17.94232 1.784212,-17.94232 0.05388,0 0.478467,0.48901 0.943528,1.08668 3.366381,4.32633 8.605824,8.48375 13.890527,11.02195 6.089213,2.92459 11.846258,4.09936 18.32815,3.73998 1.449007,-0.0803 2.644116,-0.12852 2.655798,-0.10708 0.01169,0.0214 2.004533,3.44077 4.428556,7.5985 2.424022,4.15774 4.44266,7.62331 4.48586,7.70127 0.0432,0.078 0.01,0.13131 -0.0743,0.11856 -0.0841,-0.0128 -5.59575,-0.4245 -12.248132,-0.91502 z"
       id="path1181"
       inkscape:connector-curvature="0"
       inkscape:export-filename="/home/matthias/mpd_android/musicala/app/src/main/res/mipmap-mdpi/ic_launcher.png"
       inkscape:export-xdpi="6.3000002"
       inkscape:export-ydpi="6.3000002" />
    <path
       style="opacity:1;fill:#c2185b;fill-opacity:1;stroke:none;stroke-width:0.71428573;stroke-miterlimit:4;stroke-dasharray:2.14285718, 0.71428573;stroke-dashoffset:0;stroke-opacity:1"
       d="m 83.294886,200.07841 c -5.986643,-2.26357 -7.855419,-2.99729 -8.205087,-3.22152 -0.215783,-0.13837 0.01953,-0.6962 1.215467,-2.88139 2.189874,-4.00128 5.395465,-9.67944 5.565267,-9.85793 0.0814,-0.0856 0.331856,0.14191 0.556564,0.50549 0.224708,0.36359 0.906992,1.12253 1.516185,1.68653 0.87812,0.81299 1.429734,1.139 2.662168,1.57338 l 1.554544,0.54791 1.684967,2.64584 c 3.693385,5.79957 6.097603,9.94464 5.855033,10.09455 -0.244266,0.15097 -5.919324,0.78337 -6.924452,0.77164 -0.311833,-0.004 -2.778125,-0.84267 -5.480656,-1.8645 z"
       id="path1189"
       inkscape:connector-curvature="0"
       inkscape:export-filename="/home/matthias/mpd_android/musicala/app/src/main/res/mipmap-mdpi/ic_launcher.png"
       inkscape:export-xdpi="6.3000002"
       inkscape:export-ydpi="6.3000002" />
    <path
       style="opacity:1;fill:#c2185b;fill-opacity:1;stroke:none;stroke-width:0.71428573;stroke-miterlimit:4;stroke-dasharray:2.14285718, 0.71428573;stroke-dashoffset:0;stroke-opacity:1"
       d="m 83.294886,252.47502 c -7.373128,-0.58877 -14.126848,-2.1203 -20.916194,-4.74314 l -2.206373,-0.85236 7.214557,-5.67461 c 3.968007,-3.12103 7.751673,-6.09965 8.408147,-6.61914 l 1.19359,-0.94454 12.422238,0.88805 12.422239,0.88804 9.44072,-5.47189 c 5.19239,-3.00954 9.44713,-5.45973 9.45495,-5.44486 0.0608,0.1154 -0.50496,19.35747 -0.57451,19.54082 -0.12957,0.34156 -6.21454,3.25835 -8.92707,4.27912 -4.72843,1.77939 -9.70016,3.01728 -14.98661,3.73142 -2.644704,0.35727 -10.538952,0.61527 -12.945684,0.42309 z"
       id="path1191"
       inkscape:connector-curvature="0"
       inkscape:export-filename="/home/matthias/mpd_android/musicala/app/src/main/res/mipmap-mdpi/ic_launcher.png"
       inkscape:export-xdpi="6.3000002"
       inkscape:export-ydpi="6.3000002" />
    <path
       style="opacity:1;fill:#0288d1;fill-opacity:1;stroke:none;stroke-width:0.71428573;stroke-miterlimit:4;stroke-dasharray:2.14285718, 0.71428573;stroke-dashoffset:0;stroke-opacity:1"
       d="m 124.3637,158.97486 -2.39844,-2.48296 -8.0904,-4.5865 c -4.44971,-2.52257 -8.19784,-4.65441 -8.32917,-4.73743 -0.18423,-0.11645 0.12896,-1.69894 1.37084,-6.9267 0.88528,-3.72667 1.64198,-6.80814 1.68155,-6.8477 0.0396,-0.0396 0.7834,0.10929 1.65297,0.33078 9.73316,2.47923 18.82668,7.68625 26.05758,14.92077 3.30109,3.30275 7.26734,8.32389 6.86772,8.69431 -0.1168,0.10827 -12.38939,3.19198 -16.13072,4.05314 -0.16628,0.0383 -1.27512,-0.96133 -2.68193,-2.41771 z"
       id="path1197"
       inkscape:connector-curvature="0"
       inkscape:export-filename="/home/matthias/mpd_android/musicala/app/src/main/res/mipmap-mdpi/ic_launcher.png"
       inkscape:export-xdpi="6.3000002"
       inkscape:export-ydpi="6.3000002" />
    <path
       style="opacity:1;fill:#afb42b;fill-opacity:1;stroke:none;stroke-width:0.71428573;stroke-miterlimit:4;stroke-dasharray:2.14285718, 0.71428573;stroke-dashoffset:0;stroke-opacity:1"
       d="m 74.573325,216.7857 c -2.971112,-1.14388 -6.710725,-3.26206 -9.676641,-5.48101 -2.075537,-1.55281 -6.731492,-5.99262 -6.614316,-6.30727 0.137793,-0.37001 10.928382,-10.8024 11.173307,-10.8024 0.141335,0 1.18686,0.65565 2.323388,1.45701 2.256946,1.59134 2.047295,1.49633 10.145659,4.59788 3.092318,1.18432 5.622396,2.23375 5.622396,2.33207 0,0.5613 -11.16734,14.6788 -11.596748,14.66035 -0.118256,-0.005 -0.737926,-0.21056 -1.377045,-0.45663 z"
       id="path1201"
       inkscape:connector-curvature="0"
       inkscape:export-filename="/home/matthias/mpd_android/musicala/app/src/main/res/mipmap-mdpi/ic_launcher.png"
       inkscape:export-xdpi="6.3000002"
       inkscape:export-ydpi="6.3000002" />
    <path
       style="opacity:1;fill:#afb42b;fill-opacity:1;stroke:none;stroke-width:0.71428573;stroke-miterlimit:4;stroke-dasharray:2.14285718, 0.71428573;stroke-dashoffset:0;stroke-opacity:1"
       d="m 90.481935,181.12538 c -1.029888,-1.17914 -2.043293,-2.33735 -2.252012,-2.57379 -0.376042,-0.42599 -0.376145,-0.43317 -0.01143,-0.79041 0.202433,-0.19828 1.516163,-1.13133 2.919399,-2.07345 2.086782,-1.40103 2.561529,-1.6504 2.607305,-1.36948 0.04445,0.27277 -1.162566,8.16605 -1.344372,8.79151 -0.02551,0.0877 -0.889005,-0.80523 -1.91889,-1.98438 z"
       id="path1203"
       inkscape:connector-curvature="0"
       inkscape:export-filename="/home/matthias/mpd_android/musicala/app/src/main/res/mipmap-mdpi/ic_launcher.png"
       inkscape:export-xdpi="6.3000002"
       inkscape:export-ydpi="6.3000002" />
    <path
       style="opacity:1;fill:#afb42b;fill-opacity:1;stroke:none;stroke-width:0.71428573;stroke-miterlimit:4;stroke-dasharray:2.14285718, 0.71428573;stroke-dashoffset:0;stroke-opacity:1"
       d="m 23.150359,211.2512 c -3.126691,-6.58733 -5.0765,-12.90729 -6.515683,-21.11942 -0.404332,-2.30717 -0.430339,-2.9577 -0.42688,-10.67783 0.0041,-9.11149 0.07387,-9.93496 1.345305,-15.87435 4.47522,-20.90558 16.719624,-39.01923 34.369761,-50.84459 2.569821,-1.72174 6.318414,-3.96261 6.628786,-3.96261 0.127013,0 0.450951,0.61658 0.719862,1.37017 0.863884,2.42093 3.349326,10.32482 3.45874,10.99903 0.129209,0.79625 -0.327343,1.46997 -4.745027,7.00208 -2.95256,3.69739 -17.974244,22.28283 -20.199821,24.99205 l -1.124228,1.36853 0.02998,1.84426 c 0.01648,1.01435 0.324641,12.0071 0.684784,24.42835 0.360143,12.42124 0.652865,23.0093 0.650491,23.52901 l -0.0043,0.94494 -5.492837,3.49628 c -6.415944,4.08386 -7.746099,4.89682 -8.027944,4.90655 -0.113987,0.004 -0.721923,-1.07718 -1.35097,-2.40245 z"
       id="path1205"
       inkscape:connector-curvature="0"
       inkscape:export-filename="/home/matthias/mpd_android/musicala/app/src/main/res/mipmap-mdpi/ic_launcher.png"
       inkscape:export-xdpi="6.3000002"
       inkscape:export-ydpi="6.3000002" />
    <path
       style="opacity:1;fill:#0288d1;fill-opacity:1;stroke:none;stroke-width:0.71428573;stroke-miterlimit:4;stroke-dasharray:2.14285718, 0.71428573;stroke-dashoffset:0;stroke-opacity:1"
       d="m 24.155039,213.04635 c -0.153323,-0.234 -0.663638,-1.24905 -1.134034,-2.25567 -2.736644,-5.85626 -4.641704,-11.90315 -6.09176,-19.33598 -0.503177,-2.57924 -0.517938,-2.84782 -0.586429,-10.66999 -0.07988,-9.1226 0.04623,-11.12444 0.994596,-15.78835 2.873418,-14.131 8.716377,-26.32946 17.833171,-37.23065 2.115003,-2.52896 7.352784,-7.70183 10.068981,-9.94418 3.598635,-2.97085 8.442145,-6.3177 12.092305,-8.35573 l 1.25127,-0.69864 0.378854,0.90032 c 0.394533,0.93757 2.062297,5.95475 3.060925,9.20827 0.800452,2.60785 0.779462,2.80488 -0.486908,4.57062 -1.297823,1.80959 -9.247227,11.72001 -22.390663,27.91415 l -2.584273,3.18411 0.08962,2.67452 c 0.04929,1.471 0.372102,12.83737 0.717357,25.25861 0.474226,17.06111 0.574424,22.63754 0.409728,22.8027 -0.20811,0.2087 -9.344331,6.02251 -11.771007,7.49046 -0.637258,0.38549 -1.251871,0.70089 -1.365807,0.70089 -0.113937,0 -0.332603,-0.19146 -0.485926,-0.42546 z"
       id="path1229"
       inkscape:connector-curvature="0"
       inkscape:export-filename="/home/matthias/mpd_android/musicala/app/src/main/res/mipmap-mdpi/ic_launcher.png"
       inkscape:export-xdpi="6.3000002"
       inkscape:export-ydpi="6.3000002" />
    <path
       style="opacity:1;fill:url(#linearGradient1257);fill-opacity:1;stroke:none;stroke-width:0.71428573;stroke-miterlimit:4;stroke-dasharray:2.14285718, 0.71428573;stroke-dashoffset:0;stroke-opacity:1"
       d="m 114.78097,257.11371 c -2.02055,-4.48258 -3.58967,-8.19581 -3.49628,-8.27373 0.0932,-0.0777 0.8923,-0.4281 1.77582,-0.77857 2.29201,-0.90918 6.73649,-3.15649 9.16592,-4.63467 9.88937,-6.01714 18.52771,-15.28669 23.70852,-25.44093 0.7629,-1.49524 1.40054,-2.73729 1.417,-2.76013 0.0428,-0.0594 20.33027,6.50276 20.43848,6.61097 0.0494,0.0494 -8.19694,8.41417 -18.32525,18.58833 l -18.41511,18.49846 -6.14657,3.16555 c -3.38062,1.74106 -6.21639,3.16365 -6.3017,3.16132 -0.0853,-0.002 -1.8047,-3.66379 -3.82083,-8.1366 z"
       id="path1249"
       inkscape:connector-curvature="0"
       inkscape:export-filename="/home/matthias/mpd_android/musicala/app/src/main/res/mipmap-mdpi/ic_launcher.png"
       inkscape:export-xdpi="6.3000002"
       inkscape:export-ydpi="6.3000002" />
    <path
       style="opacity:1;fill:#8d6e63;fill-opacity:1;stroke:none;stroke-width:0.71428573;stroke-miterlimit:4;stroke-dasharray:2.14285718, 0.71428573;stroke-dashoffset:0;stroke-opacity:1"
       d="m 161.38308,156.14658 c -5.44495,-5.68621 -16.70043,-17.55508 -30.4892,-32.15076 l -7.55952,-8.0019 -1.22842,0.10614 c -0.67564,0.0584 -13.30476,1.25735 -28.064732,2.66438 -14.759972,1.40703 -27.644236,2.61167 -28.631698,2.67699 l -1.795385,0.11876 -2.051447,-6.54122 c -1.128295,-3.59767 -2.00686,-6.65741 -1.952369,-6.79941 0.204748,-0.53356 6.297481,-3.21764 10.90503,-4.80408 9.061127,-3.11986 16.809413,-4.386261 26.823688,-4.384121 10.160003,0.002 18.513113,1.388651 27.998833,4.647371 21.17544,7.2746 39.34309,22.60095 49.93586,42.12623 1.36158,2.50975 3.52865,7.0728 3.52865,7.43005 0,0.17571 -4.17697,3.17086 -9.09141,6.51911 l -2.94929,2.00938 z"
       id="path1259"
       inkscape:connector-curvature="0"
       inkscape:export-filename="/home/matthias/mpd_android/musicala/app/src/main/res/mipmap-mdpi/ic_launcher.png"
       inkscape:export-xdpi="6.3000002"
       inkscape:export-ydpi="6.3000002" />
    <path
       style="opacity:1;fill:#4db6ac;fill-opacity:1;stroke:none;stroke-width:0.71428573;stroke-miterlimit:4;stroke-dasharray:2.14285718, 0.71428573;stroke-dashoffset:0;stroke-opacity:1"
       d="m 88.466058,233.97823 -11.622767,-0.88569 -7.465031,-3.83822 c -10.724126,-5.5139 -13.844963,-7.14238 -14.234916,-7.42785 -0.332666,-0.24353 -0.330772,-0.4018 0.05609,-4.68589 0.477851,-5.29164 1.295646,-12.87481 1.399683,-12.97885 0.04078,-0.0408 0.71147,0.67454 1.490424,1.5896 5.809697,6.82481 13.749832,11.54315 22.579632,13.41769 2.236546,0.47481 2.745856,0.51246 7.049296,0.52104 l 4.638574,0.009 4.33836,7.44583 c 2.386097,4.09521 4.366707,7.51825 4.401357,7.60677 0.0809,0.20666 0.86161,0.25448 -12.630706,-0.77368 z"
       id="path1263"
       inkscape:connector-curvature="0"
       inkscape:export-filename="/home/matthias/mpd_android/musicala/app/src/main/res/mipmap-mdpi/ic_launcher.png"
       inkscape:export-xdpi="6.3000002"
       inkscape:export-ydpi="6.3000002" />
    <path
       style="opacity:1;fill:url(#linearGradient1285);fill-opacity:1;stroke:none;stroke-width:0.71428573;stroke-miterlimit:4;stroke-dasharray:2.14285718, 0.71428573;stroke-dashoffset:0;stroke-opacity:1"
       d="m 121.58907,272.42718 c -1.58134,-3.63505 -2.84839,-6.63402 -2.81566,-6.66438 0.0327,-0.0304 2.82346,-1.47705 6.20162,-3.21486 l 6.14212,-3.15964 13.47746,-13.44411 c 7.4126,-7.39426 15.84659,-15.87179 18.74219,-18.83895 l 5.26474,-5.39484 -0.83109,-28.43403 c -0.4571,-15.63872 -0.83311,-29.00201 -0.83557,-29.69622 l -0.004,-1.2622 6.00037,-4.16365 c 3.30021,-2.29 6.08542,-4.15518 6.18936,-4.14484 0.20859,0.0207 0.72078,1.20925 1.69571,3.93482 7.55806,21.12963 7.09799,43.98964 -1.31823,65.4999 -8.38658,21.43453 -24.07117,39.35144 -44.1668,50.45286 -2.58172,1.42622 -7.25724,3.67478 -9.71348,4.67143 l -1.15309,0.46788 z"
       id="path1277"
       inkscape:connector-curvature="0"
       inkscape:export-filename="/home/matthias/mpd_android/musicala/app/src/main/res/mipmap-mdpi/ic_launcher.png"
       inkscape:export-xdpi="6.3000002"
       inkscape:export-ydpi="6.3000002" />
    <text
       xml:space="preserve"
       style="font-style:normal;font-weight:normal;font-size:8.46666622px;line-height:125%;font-family:sans-serif;letter-spacing:0px;word-spacing:0px;fill:#000000;fill-opacity:1;stroke:none;stroke-width:0.26458332px;stroke-linecap:butt;stroke-linejoin:miter;stroke-opacity:1"
       x="3.4017839"
       y="291.33035"
       id="text1098"><tspan
         sodipodi:role="line"
         id="tspan1096"
         x="3.4017839"
         y="291.33035"
         style="font-style:italic;font-variant:normal;font-weight:normal;font-stretch:normal;font-size:25.39999962px;font-family:sans-serif;-inkscape-font-specification:'sans-serif, Italic';font-variant-ligatures:normal;font-variant-caps:normal;font-variant-numeric:normal;font-feature-settings:normal;text-align:start;writing-mode:lr-tb;text-anchor:start;stroke-width:0.26458332px">musicala</tspan></text>
  </g>
</svg>
