<?xml version="1.0" encoding="UTF-8" standalone="no"?>
<!--
  ~  Copyright (C) 2018 Team Gateship-One
  ~  (Hendrik Borghorst & Frederik Luetkes)
  ~
  ~  The AUTHORS.md file contains a detailed contributors list:
  ~  <https://gitlab.com/matthias-weiss/musicala/blob/master/AUTHORS.md>
  ~
  ~  This program is free software: you can redistribute it and/or modify
  ~  it under the terms of the GNU General Public License as published by
  ~  the Free Software Foundation, either version 3 of the License, or
  ~  (at your option) any later version.
  ~
  ~  This program is distributed in the hope that it will be useful,
  ~  but WITHOUT ANY WARRANTY; without even the implied warranty of
  ~  MERCHANTABILITY or FITNESS FOR A PARTICULAR PURPOSE.  See the
  ~  GNU General Public License for more details.
  ~
  ~  You should have received a copy of the GNU General Public License
  ~  along with this program.  If not, see <http://www.gnu.org/licenses/>.
  ~
  -->

<!-- Created with Inkscape (http://www.inkscape.org/) -->

<svg
   xmlns:dc="http://purl.org/dc/elements/1.1/"
   xmlns:cc="http://creativecommons.org/ns#"
   xmlns:rdf="http://www.w3.org/1999/02/22-rdf-syntax-ns#"
   xmlns:svg="http://www.w3.org/2000/svg"
   xmlns="http://www.w3.org/2000/svg"
   xmlns:xlink="http://www.w3.org/1999/xlink"
   xmlns:sodipodi="http://sodipodi.sourceforge.net/DTD/sodipodi-0.dtd"
   xmlns:inkscape="http://www.inkscape.org/namespaces/inkscape"
   width="720"
   height="1280"
   id="svg5925"
   version="1.1"
   inkscape:version="0.92.3 (2405546, 2018-03-11)"
   sodipodi:docname="malp_splash_port.svg">
  <defs
     id="defs5927">
    <linearGradient
       id="linearGradient17391"
       inkscape:collect="always">
      <stop
         id="stop17387"
         offset="0"
         style="stop-color:#ff00ff;stop-opacity:1;" />
      <stop
         id="stop17389"
         offset="1"
         style="stop-color:#ff00ff;stop-opacity:0;" />
    </linearGradient>
    <linearGradient
       id="linearGradient17352-3"
       inkscape:collect="always">
      <stop
         id="stop17348"
         offset="0"
         style="stop-color:#000080;stop-opacity:1;" />
      <stop
         id="stop17350"
         offset="1"
         style="stop-color:#000080;stop-opacity:0;" />
    </linearGradient>
    <linearGradient
       gradientUnits="userSpaceOnUse"
       y2="691.26746"
       x2="459.75629"
       y1="666.09314"
       x1="506.56641"
       id="linearGradient17354"
       xlink:href="#linearGradient17352-3"
       inkscape:collect="always" />
    <linearGradient
       gradientUnits="userSpaceOnUse"
       y2="631.26044"
       x2="431.72595"
       y1="494.07681"
       x1="617.14594"
       id="linearGradient17393"
       xlink:href="#linearGradient17391"
       inkscape:collect="always" />
  </defs>
  <sodipodi:namedview
     id="base"
     pagecolor="#000000"
     bordercolor="#666666"
     borderopacity="1.0"
     inkscape:pageopacity="0"
     inkscape:pageshadow="2"
     inkscape:zoom="0.7"
     inkscape:cx="119.68634"
     inkscape:cy="650.76035"
     inkscape:document-units="px"
     inkscape:current-layer="g4142"
     showgrid="false"
     fit-margin-top="0"
     fit-margin-left="0"
     fit-margin-right="0"
     fit-margin-bottom="0"
     inkscape:window-width="1680"
     inkscape:window-height="962"
     inkscape:window-x="0"
     inkscape:window-y="32"
     inkscape:window-maximized="1" />
  <metadata
     id="metadata5930">
    <rdf:RDF>
      <cc:Work
         rdf:about="">
        <dc:format>image/svg+xml</dc:format>
        <dc:type
           rdf:resource="http://purl.org/dc/dcmitype/StillImage" />
        <dc:title />
      </cc:Work>
    </rdf:RDF>
  </metadata>
  <g
     inkscape:label="Ebene 1"
     inkscape:groupmode="layer"
     id="layer1"
     transform="translate(41.272082,388.59901)">
    <g
       id="g4142"
       transform="translate(0,-367.60953)">
      <text
         xml:space="preserve"
         style="font-style:normal;font-weight:normal;font-size:40px;line-height:1.25;font-family:sans-serif;letter-spacing:0px;word-spacing:0px;fill:#fdffff;fill-opacity:0.50196078;stroke:none"
         x="229.47987"
         y="850.9408"
         id="text1582"><tspan
           sodipodi:role="line"
           id="tspan1580"
           x="229.47987"
           y="850.9408">musicala</tspan></text>
      <g
         transform="matrix(1.716431,0,0,1.716431,145.4661,210.77355)"
         id="layer1-8"
         inkscape:label="Ebene 1">
        <path
           d="m 92.604164,191.16667 c 1.591892,4.77569 -5.652143,4.50199 -7.937501,2.64583 -6.193178,-5.03009 -2.851436,-14.51337 2.645843,-18.52083 9.833341,-7.16842 23.381744,-1.80997 29.104164,7.93751 8.39787,14.30483 0.798,32.39226 -13.22919,39.6875 -18.696032,9.7234 -41.456063,-0.19778 -50.270822,-18.52086 -11.092474,-23.05773 1.184448,-50.54598 23.812531,-60.85416 27.405641,-12.48457 59.650741,2.16571 71.437481,29.10421 13.89027,31.74608 -3.14354,68.76478 -34.39587,82.02081 -36.082055,15.30462 -77.88501,-4.1191 -92.604146,-39.68754 -16.724818,-40.41513 5.09307,-87.00958 44.979218,-103.18748 44.746228,-18.149154 96.137308,6.06589 113.770808,50.27089 19.57652,49.07593 -7.03786,105.26742 -55.56256,124.35414"
           sodipodi:t0="0"
           sodipodi:argument="-17.60051"
           sodipodi:radius="100.40231"
           sodipodi:revolution="3"
           sodipodi:expansion="1"
           sodipodi:cy="191.16667"
           sodipodi:cx="92.604164"
           id="path17155"
           style="fill:none;fill-rule:evenodd;stroke:#000000;stroke-width:0.26458332"
           sodipodi:type="spiral" />
        <path
           sodipodi:nodetypes="cscccccscscscscscscc"
           inkscape:connector-curvature="0"
           id="path17184"
           d="m 92.604163,191.16667 c 0,0 -4.93976,1.06368 -5.474298,-4.54898 -0.53454,-5.61267 7.216277,-6.41447 7.216277,-6.41447 0,0 7.483548,-1.33635 10.958048,4.27631 3.47451,5.61266 -1.06908,15.23436 -1.06908,15.23436 0,0 -2.40542,7.21628 -9.35443,9.6217 -6.949006,2.40543 -20.312483,-5.07812 -20.312483,-5.07812 0,0 -10.69078,-4.54358 -11.225321,-16.57071 -0.534537,-12.02713 10.690784,-22.71791 10.690784,-22.71791 0,0 2.138156,-5.34539 17.105248,-10.42351 14.967092,-5.07812 29.132382,8.01809 29.132382,8.01809 0,0 13.63074,9.88897 16.83798,27.79603 3.20723,17.90706 -9.35444,33.67596 -9.35444,33.67596 0,0 -9.6217,13.09621 -25.65787,18.17433 -16.036173,5.07812 -40.357699,-7.75082 -40.357699,-7.75082 0,0 -16.83798,-10.95805 -24.054258,-23.25245 -7.216277,-12.2944 -5.612659,-36.61592 -5.612659,-36.61592 0,0 3.975601,-15.3692 16.036171,-31.00327 14.432552,-18.70886 33.40869,-22.98518 33.40869,-22.98518 0,0 5.879929,-1.87088 17.372519,-0.80181 0,0 22.450646,0.26727 33.408696,7.75082 10.95805,7.48355 26.99422,26.72695 26.99422,26.72695 0,0 8.81989,10.95805 10.42351,30.736 1.60362,19.77794 -5.61266,40.62497 -5.61266,40.62497 0,0 -5.87993,16.57071 -17.90706,28.59784 -12.02713,12.02713 -27.79603,19.2434 -27.79603,19.2434"
           style="fill:none;stroke:#000000;stroke-width:0.26458332px;stroke-linecap:butt;stroke-linejoin:miter;stroke-opacity:1" />
        <path
           inkscape:connector-curvature="0"
           id="path17186"
           d="m 87.200294,185.08268 -5.265832,-2.15967"
           style="fill:none;stroke:#000000;stroke-width:0.26458332px;stroke-linecap:butt;stroke-linejoin:miter;stroke-opacity:1" />
        <path
           inkscape:connector-curvature="0"
           id="path17188"
           d="m 94.34614,180.20322 -1.741977,10.96345"
           style="fill:none;stroke:#000000;stroke-width:0.26458332px;stroke-linecap:butt;stroke-linejoin:miter;stroke-opacity:1" />
        <path
           inkscape:connector-curvature="0"
           id="path17190"
           d="m 100.00832,180.56755 2.63032,-7.87421"
           style="fill:none;stroke:#000000;stroke-width:0.26458332px;stroke-linecap:butt;stroke-linejoin:miter;stroke-opacity:1" />
        <path
           inkscape:connector-curvature="0"
           id="path17192"
           d="m 106.57765,188.76035 -14.289011,5.17713"
           style="fill:none;stroke:#000000;stroke-width:0.26458332px;stroke-linecap:butt;stroke-linejoin:miter;stroke-opacity:1" />
        <path
           inkscape:connector-curvature="0"
           id="path17194"
           d="m 105.91634,194.85525 10.27541,15.29892"
           style="fill:none;stroke:#000000;stroke-width:0.26458332px;stroke-linecap:butt;stroke-linejoin:miter;stroke-opacity:1" />
        <path
           inkscape:connector-curvature="0"
           id="path17196"
           d="m 96.645649,208.57924 -8.36944,-13.54966"
           style="fill:none;stroke:#000000;stroke-width:0.26458332px;stroke-linecap:butt;stroke-linejoin:miter;stroke-opacity:1" />
        <path
           inkscape:connector-curvature="0"
           id="path17198"
           d="M 88.390306,209.49097 76.344578,224.88911"
           style="fill:none;stroke:#000000;stroke-width:0.26458332px;stroke-linecap:butt;stroke-linejoin:miter;stroke-opacity:1" />
        <path
           inkscape:connector-curvature="0"
           id="path17200"
           d="m 74.244106,204.10642 7.762783,-13.8374"
           style="fill:none;stroke:#000000;stroke-width:0.26458332px;stroke-linecap:butt;stroke-linejoin:miter;stroke-opacity:1" />
        <path
           inkscape:connector-curvature="0"
           id="path17202"
           d="m 69.349005,200.66589 -11.587236,11.3677"
           style="fill:none;stroke:#000000;stroke-width:0.26458332px;stroke-linecap:butt;stroke-linejoin:miter;stroke-opacity:1" />
        <path
           inkscape:connector-curvature="0"
           id="path17204"
           d="m 67.739077,173.00185 13.666604,12.38772"
           style="fill:none;stroke:#000000;stroke-width:0.26458332px;stroke-linecap:butt;stroke-linejoin:miter;stroke-opacity:1" />
        <path
           inkscape:connector-curvature="0"
           id="path17206"
           d="M 79.778274,159.67336 65.701351,150.55884"
           style="fill:none;stroke:#000000;stroke-width:0.26458332px;stroke-linecap:butt;stroke-linejoin:miter;stroke-opacity:1" />
        <path
           inkscape:connector-curvature="0"
           id="path17208"
           d="m 92.75044,154.0664 1.991051,18.13647"
           style="fill:none;stroke:#000000;stroke-width:0.26458332px;stroke-linecap:butt;stroke-linejoin:miter;stroke-opacity:1" />
        <path
           inkscape:connector-curvature="0"
           id="path17210"
           d="m 105.04979,154.28783 3.3326,-14.10256"
           style="fill:none;stroke:#000000;stroke-width:0.26458332px;stroke-linecap:butt;stroke-linejoin:miter;stroke-opacity:1" />
        <path
           inkscape:connector-curvature="0"
           id="path17212"
           d="m 121.77535,163.78781 -11.87017,12.38014"
           style="fill:none;stroke:#000000;stroke-width:0.26458332px;stroke-linecap:butt;stroke-linejoin:miter;stroke-opacity:1" />
        <path
           inkscape:connector-curvature="0"
           id="path17214"
           d="m 126.74348,168.84753 17.07491,-4.24542"
           style="fill:none;stroke:#000000;stroke-width:0.26458332px;stroke-linecap:butt;stroke-linejoin:miter;stroke-opacity:1" />
        <path
           inkscape:connector-curvature="0"
           id="path17216"
           d="m 136.87018,189.12928 -17.02686,5.00496"
           style="fill:none;stroke:#000000;stroke-width:0.26458332px;stroke-linecap:butt;stroke-linejoin:miter;stroke-opacity:1" />
        <path
           inkscape:connector-curvature="0"
           id="path17218"
           d="m 137.1287,202.43331 12.81141,12.77959"
           style="fill:none;stroke:#000000;stroke-width:0.26458332px;stroke-linecap:butt;stroke-linejoin:miter;stroke-opacity:1" />
        <path
           inkscape:connector-curvature="0"
           id="path17220"
           d="m 129.95646,220.83588 -19.38127,-3.2962"
           style="fill:none;stroke:#000000;stroke-width:0.26458332px;stroke-linecap:butt;stroke-linejoin:miter;stroke-opacity:1" />
        <path
           inkscape:connector-curvature="0"
           id="path17222"
           d="m 120.96395,231.19657 -0.50817,20.15591"
           style="fill:none;stroke:#000000;stroke-width:0.26458332px;stroke-linecap:butt;stroke-linejoin:miter;stroke-opacity:1" />
        <path
           inkscape:connector-curvature="0"
           id="path17224"
           d="M 101.75365,242.31536 92.428308,226.37879"
           style="fill:none;stroke:#000000;stroke-width:0.26458332px;stroke-linecap:butt;stroke-linejoin:miter;stroke-opacity:1" />
        <path
           inkscape:connector-curvature="0"
           id="path17226"
           d="M 76.888117,240.54526 59.760005,254.03247"
           style="fill:none;stroke:#000000;stroke-width:0.26458332px;stroke-linecap:butt;stroke-linejoin:miter;stroke-opacity:1" />
        <path
           inkscape:connector-curvature="0"
           id="path17228"
           d="M 54.336537,229.01255 56.325576,210.1474"
           style="fill:none;stroke:#000000;stroke-width:0.26458332px;stroke-linecap:butt;stroke-linejoin:miter;stroke-opacity:1" />
        <path
           inkscape:connector-curvature="0"
           id="path17230"
           d="m 38.459552,212.46507 -14.182691,9.06564"
           style="fill:none;stroke:#000000;stroke-width:0.26458332px;stroke-linecap:butt;stroke-linejoin:miter;stroke-opacity:1" />
        <path
           inkscape:connector-curvature="0"
           id="path17232"
           d="m 36.982492,161.82304 17.163857,3.14628"
           style="fill:none;stroke:#000000;stroke-width:0.26458332px;stroke-linecap:butt;stroke-linejoin:miter;stroke-opacity:1" />
        <path
           inkscape:connector-curvature="0"
           id="path17234"
           d="M 63.490149,129.10407 59.013984,115.10398"
           style="fill:none;stroke:#000000;stroke-width:0.26458332px;stroke-linecap:butt;stroke-linejoin:miter;stroke-opacity:1" />
        <path
           inkscape:connector-curvature="0"
           id="path17236"
           d="m 123.17238,123.40007 -5.19917,19.77127"
           style="fill:none;stroke:#000000;stroke-width:0.26458332px;stroke-linecap:butt;stroke-linejoin:miter;stroke-opacity:1" />
        <path
           inkscape:connector-curvature="0"
           id="path17238"
           d="m 166.66643,169.36551 12.64743,-8.77517"
           style="fill:none;stroke:#000000;stroke-width:0.26458332px;stroke-linecap:butt;stroke-linejoin:miter;stroke-opacity:1" />
        <path
           inkscape:connector-curvature="0"
           id="path17240"
           d="m 163.28653,227.72449 -16.03465,-5.68955"
           style="fill:none;stroke:#000000;stroke-width:0.26458332px;stroke-linecap:butt;stroke-linejoin:miter;stroke-opacity:1" />
        <path
           inkscape:connector-curvature="0"
           id="path17242"
           d="m 131.26338,266.17556 5.11185,14.51972"
           style="fill:#ff0000;stroke:#000000;stroke-width:0.26458332px;stroke-linecap:butt;stroke-linejoin:miter;stroke-opacity:1" />
        <path
           transform="matrix(0.26458333,0,0,0.26458333,0,97)"
           inkscape:connector-curvature="0"
           id="path17246"
           d="m 323.93426,366.67887 c -11.54432,-5.83596 -17.41948,-20.17987 -14.78753,-36.10308 0.76789,-4.64573 1.4985,-4.67148 11.47346,-0.40437 l 7.57615,3.24094 0.59148,6.14863 c 1.04462,10.85909 7.5733,17.45193 17.33872,17.50912 3.51457,0.0206 3.78808,0.23692 3.78808,2.99631 0,1.68413 -1.05298,4.19829 -2.42766,5.79645 -2.21327,2.57308 -3.12765,2.85142 -10.35407,3.15179 -6.94163,0.28853 -8.58142,-0.002 -13.19863,-2.33579 z"
           style="fill:#0000ff;stroke:none;stroke-width:1.01015258;stroke-miterlimit:4;stroke-dasharray:none;stroke-opacity:1" />
        <path
           transform="matrix(0.26458333,0,0,0.26458333,0,97)"
           inkscape:connector-curvature="0"
           id="path17248"
           d="m 318.85243,327.52445 c -4.18861,-1.79373 -7.32361,-3.7513 -7.32361,-4.57302 0,-2.77323 6.57736,-13.73856 11.41741,-19.03435 10.11861,-11.07137 25.4206,-18.13624 41.6156,-19.21375 7.15109,-0.4758 20.15504,0.78849 21.4522,2.08564 0.26209,0.26209 -1.55167,6.52798 -4.03057,13.92419 -3.81892,11.39438 -4.79896,13.40048 -6.41867,13.13867 -1.05138,-0.16994 -6.00271,-0.37606 -11.00296,-0.45805 -15.41882,-0.25281 -29.6153,5.68917 -33.75588,14.12862 -0.8797,1.79303 -2.28131,3.23266 -3.11469,3.19919 -0.83338,-0.0335 -4.81085,-1.47218 -8.83883,-3.19714 z"
           style="fill:#ff0000;stroke:none;stroke-width:1.01015258;stroke-miterlimit:4;stroke-dasharray:none;stroke-opacity:1" />
        <path
           transform="matrix(0.26458333,0,0,0.26458333,0,97)"
           inkscape:connector-curvature="0"
           id="path17250"
           d="m 338.80836,353.30265 c -4.85085,-2.42698 -8.23896,-8.84278 -8.30075,-15.71846 -0.0791,-8.80547 3.64346,-13.88158 13.34907,-18.20278 7.89661,-3.51579 11.1087,-4.13899 11.1087,-2.15528 0,1.75999 -4.73048,31.97383 -5.56955,35.57302 -0.66758,2.8636 -5.41872,3.08955 -10.58747,0.5035 z"
           style="fill:#00ff00;stroke:none;stroke-width:1.01015258;stroke-miterlimit:4;stroke-dasharray:none;stroke-opacity:1" />
        <path
           transform="matrix(0.26458333,0,0,0.26458333,0,97)"
           inkscape:connector-curvature="0"
           id="path17252"
           d="m 351.50807,357.84977 c 0.043,-3.47232 1.38144,-14.39542 2.97427,-24.27355 2.80192,-17.37657 2.9796,-17.98122 5.46747,-18.60564 3.65204,-0.9166 16.88328,1.19911 22.46108,3.59158 9.73124,4.17399 17.94741,14.78836 18.33596,23.68801 l 0.18047,4.13348 -24.24366,8.87147 c -13.33401,4.87931 -24.47095,8.87969 -24.74874,8.88972 -0.27779,0.01 -0.46987,-2.82274 -0.42685,-6.29507 z"
           style="fill:#ffff00;stroke:none;stroke-width:1.01015258;stroke-miterlimit:4;stroke-dasharray:none;stroke-opacity:1" />
        <path
           transform="matrix(0.26458333,0,0,0.26458333,0,97)"
           inkscape:connector-curvature="0"
           id="path17254"
           d="m 419.82596,397.20187 -18.477,-27.49926 1.1619,-5.41774 c 0.63904,-2.97976 0.99125,-10.02754 0.78269,-15.66173 -0.32087,-8.66829 -0.80856,-11.12159 -3.17057,-15.94935 -3.82849,-7.82516 -10.77268,-13.72876 -20.65082,-17.55627 -0.31105,-0.12052 8.65493,-26.87899 9.18345,-27.40751 0.8884,-0.8884 14.72697,5.11045 21.3507,9.25527 18.02462,11.27896 30.98155,28.12524 37.69903,49.01534 5.84304,18.17074 5.68686,41.03384 -0.41042,60.08242 -2.05165,6.40958 -7.57906,18.72102 -8.38388,18.67378 -0.33444,-0.0196 -8.92273,-12.41036 -19.08508,-27.53495 z"
           style="fill:#000080;stroke:none;stroke-width:1.01015258;stroke-miterlimit:4;stroke-dasharray:none;stroke-opacity:1" />
        <path
           transform="matrix(0.26458333,0,0,0.26458333,0,97)"
           inkscape:connector-curvature="0"
           id="path17256"
           d="m 350.92477,396.68931 c -8.05597,-13.08807 -14.79874,-24.16963 -14.98393,-24.62568 -0.18519,-0.45606 1.19604,-0.8292 3.06941,-0.8292 1.87337,0 5.20687,-0.94399 7.40778,-2.09776 4.06472,-2.13082 52.44255,-20.12559 54.10641,-20.12559 1.46897,0 1.04161,10.63032 -0.74275,18.47553 -3.93677,17.30864 -12.05399,33.51638 -21.54954,43.02816 -3.66861,3.67488 -8.01794,7.42172 -9.66518,8.32632 l -2.99499,1.64471 z"
           style="fill:#800000;stroke:none;stroke-width:1.01015258;stroke-miterlimit:4;stroke-dasharray:none;stroke-opacity:1" />
        <path
           transform="matrix(0.26458333,0,0,0.26458333,0,97)"
           inkscape:connector-curvature="0"
           id="path17258"
           d="m 315.56943,488.33358 c -12.00299,-1.52189 -25.34784,-4.99495 -24.50462,-6.37745 0.42132,-0.69076 10.26358,-13.37821 21.8717,-28.19433 l 21.10565,-26.93841 9.19892,0.13402 c 5.05941,0.0737 10.78991,-0.21646 12.73445,-0.64482 9.39102,-2.06875 21.88425,-10.751 28.90036,-20.08449 5.67156,-7.54483 7.75594,-11.55728 12.43484,-23.93715 l 3.64778,-9.65161 18.48632,27.54078 18.48632,27.54078 -2.55389,4.33418 c -4.86683,8.25946 -15.69033,20.88857 -23.87647,27.85965 -26.14135,22.26121 -61.61482,32.76992 -95.93136,28.41885 z"
           style="fill:#ff00ff;stroke:none;stroke-width:1.01015258;stroke-miterlimit:4;stroke-dasharray:none;stroke-opacity:1" />
        <path
           transform="matrix(0.26458333,0,0,0.26458333,0,97)"
           inkscape:connector-curvature="0"
           id="path17260"
           d="m 340.31817,425.10178 c -13.14989,-1.64102 -29.66846,-6.9883 -47.34431,-15.32596 -10.48633,-4.94639 -10.81516,-5.1998 -9.64965,-7.43647 0.66365,-1.27356 6.89692,-12.4808 13.85172,-24.90497 11.45906,-20.47064 12.75459,-22.3848 13.8125,-20.40806 0.64208,1.19973 3.13057,4.20702 5.52999,6.68288 3.28678,3.3915 5.88728,4.96405 10.54562,6.37707 l 6.18306,1.87552 15.32705,24.6376 15.32706,24.63759 -3.05915,1.30903 c -3.61958,1.54885 -12.33498,3.29965 -15.35847,3.08531 -1.17423,-0.0833 -3.49867,-0.32154 -5.16542,-0.52954 z"
           style="fill:#008080;stroke:none;stroke-width:1.01015258;stroke-miterlimit:4;stroke-dasharray:none;stroke-opacity:1" />
        <path
           transform="matrix(0.26458333,0,0,0.26458333,0,97)"
           inkscape:connector-curvature="0"
           id="path17262"
           d="m 272.51767,398.64122 c -14.87969,-10.4496 -25.29413,-24.82544 -29.74954,-41.06554 -1.90616,-6.94803 -2.13004,-9.75872 -1.68605,-21.16768 0.56913,-14.62456 2.24772,-21.35574 8.81201,-35.33641 6.57985,-14.01378 3.19948,-15.15366 31.66804,10.6786 l 24.91593,22.60862 v 4.85851 c 0,2.67218 0.49413,6.82091 1.09808,9.21939 l 1.09808,4.36088 -13.81557,24.62325 c -7.59856,13.54278 -14.14656,24.97226 -14.5511,25.39885 -0.40454,0.42659 -3.90999,-1.45373 -7.78988,-4.17847 z"
           style="fill:#808000;stroke:none;stroke-width:1.01015258;stroke-miterlimit:4;stroke-dasharray:none;stroke-opacity:1" />
        <path
           transform="matrix(0.26458333,0,0,0.26458333,0,97)"
           inkscape:connector-curvature="0"
           id="path17264"
           d="m 282.01472,309.44359 -24.83743,-22.51126 4.93842,-7.09389 c 5.20956,-7.48335 18.17226,-22.98253 26.04303,-31.139 9.01552,-9.34278 29.94836,-20.88767 51.40181,-28.34916 7.65286,-2.66165 10.35407,-3.24195 10.35407,-2.22435 0,0.75724 1.59516,15.59964 3.54481,32.98312 2.69544,24.03315 3.25575,31.78499 2.33836,32.35196 -0.66355,0.4101 -2.82693,1.03785 -4.80751,1.39499 -1.98057,0.35715 -7.38317,2.46596 -12.00578,4.68625 -14.68927,7.05542 -26.8372,21.72187 -30.79223,37.17612 l -1.34011,5.23648 z"
           style="fill:#00ffff;stroke:none;stroke-width:1.01015258;stroke-miterlimit:4;stroke-dasharray:none;stroke-opacity:1" />
        <path
           transform="matrix(0.26458333,0,0,0.26458333,0,97)"
           inkscape:connector-curvature="0"
           id="path17266"
           d="m 408.52492,293.8411 c -11.31612,-7.04732 -24.9425,-10.85729 -39.1163,-10.93704 l -10.3055,-0.058 -0.5492,-3.53553 c -1.98097,-12.75259 -6.64525,-61.99711 -5.93906,-62.70331 0.47434,-0.47433 5.06109,-1.33806 10.19277,-1.91938 27.66353,-3.13377 61.01505,9.00487 89.83638,32.69688 l 6.25982,5.14577 -9.29028,9.6126 c -29.02108,30.02793 -34.27935,35.34068 -34.88589,35.24741 -0.3676,-0.0565 -3.15883,-1.65377 -6.20274,-3.54942 z"
           style="fill:#800000;stroke:none;stroke-width:1.01015258;stroke-miterlimit:4;stroke-dasharray:none;stroke-opacity:1" />
        <path
           transform="matrix(0.26458333,0,0,0.26458333,0,97)"
           inkscape:connector-curvature="0"
           id="path17268"
           d="m 453.96033,364.85397 c 0,-2.44108 -2.70291,-14.11074 -4.72237,-20.38858 -5.10221,-15.86111 -14.70401,-30.69235 -26.01146,-40.17814 l -6.29245,-5.27872 21.71969,-22.52823 21.7197,-22.52823 7.46188,7.37594 c 22.07498,21.82074 37.6094,47.80297 45.76925,76.55178 l 2.71822,9.57684 -29.91854,8.8334 c -27.67389,8.17067 -32.44392,9.42978 -32.44392,8.56394 z"
           style="fill:#ff00ff;stroke:none;stroke-width:1.01015258;stroke-miterlimit:4;stroke-dasharray:none;stroke-opacity:1" />
        <path
           transform="matrix(0.26458333,0,0,0.26458333,0,97)"
           inkscape:connector-curvature="0"
           id="path17270"
           d="m 455.59733,461.02242 c -18.82288,-3.22858 -34.35471,-6.00144 -34.51519,-6.16191 -0.16047,-0.16048 2.66152,-3.89396 6.2711,-8.29663 16.19674,-19.75551 24.97278,-41.92755 26.41046,-66.72411 l 0.70171,-12.10279 29.7995,-8.82045 c 16.38972,-4.85125 30.33707,-8.83729 30.99411,-8.85787 1.67906,-0.0526 2.14131,1.97986 3.31881,14.59252 2.48006,26.56508 -3.9322,55.67164 -18.825,85.45047 -4.08288,8.1639 -7.98787,15.28164 -8.67775,15.81719 -0.83423,0.6476 -12.71645,-0.99231 -35.47775,-4.89642 z"
           style="fill:#00ff00;stroke:none;stroke-width:1.01015258;stroke-miterlimit:4;stroke-dasharray:none;stroke-opacity:1" />
        <path
           transform="matrix(0.26458333,0,0,0.26458333,0,97)"
           inkscape:connector-curvature="0"
           id="path17272"
           d="m 279.70901,478.94411 c -11.52361,-4.74838 -17.07032,-7.72136 -27.81665,-14.90947 -9.2609,-6.19451 -31.27727,-26.2871 -31.27727,-28.54426 0,-0.62694 9.25502,-10.38666 20.56672,-21.68826 l 20.56671,-20.54836 6.45487,4.7877 c 9.00804,6.68144 33.97416,18.71696 48.12528,23.19996 6.52721,2.06779 12.68932,4.05607 13.69355,4.41841 1.52213,0.54919 -1.64321,5.10949 -19.02714,27.41239 -11.46916,14.71449 -21.38217,27.30445 -22.02893,27.97771 -0.9162,0.95374 -2.96072,0.48865 -9.25714,-2.10582 z"
           style="fill:#00ff00;stroke:none;stroke-width:1.01015258;stroke-miterlimit:4;stroke-dasharray:none;stroke-opacity:1" />
        <path
           transform="matrix(0.26458333,0,0,0.26458333,0,97)"
           inkscape:connector-curvature="0"
           id="path17274"
           d="m 210.94343,422.71357 c -7.69813,-11.56349 -15.34944,-27.96686 -19.12948,-41.01096 -16.94497,-58.47356 0.86512,-122.81385 46.67759,-168.62632 9.056,-9.05601 9.74234,-9.53411 11.77982,-8.20574 1.18995,0.7758 12.50497,8.11055 25.14451,16.29944 12.63953,8.18889 22.98097,15.25922 22.98097,15.71184 0,0.45262 -2.18111,2.38993 -4.84693,4.30512 -2.66581,1.91519 -7.19156,6.16259 -10.05723,9.43867 -2.86567,3.27607 -7.99059,9.13848 -11.38872,13.02757 -11.9799,13.71074 -22.9957,32.05672 -28.50757,47.47717 -3.8217,10.6919 -5.13423,19.98645 -4.57986,32.43179 0.75733,17.0015 6.26492,30.94658 17.07072,43.22261 l 4.24298,4.82028 -20.60594,20.62435 c -11.33327,11.34339 -20.92642,20.62435 -21.31811,20.62435 -0.39169,0 -3.74993,-4.56307 -7.46275,-10.14017 z"
           style="fill:#0000ff;stroke:none;stroke-width:1.01015258;stroke-miterlimit:4;stroke-dasharray:none;stroke-opacity:1" />
        <path
           transform="matrix(0.26458333,0,0,0.26458333,0,97)"
           inkscape:connector-curvature="0"
           id="path17276"
           d="m 276.39553,219.42274 c -13.73393,-8.87999 -25.1574,-16.30877 -25.38549,-16.50841 -1.91228,-1.67379 20.23972,-16.6555 35.69385,-24.14025 28.46883,-13.78805 56.20499,-19.50089 88.94882,-18.32085 15.16309,0.54646 30.87075,2.39337 32.27193,3.79454 0.26576,0.26576 -0.36153,3.87611 -1.39397,8.02298 -1.03246,4.14688 -3.75898,15.52709 -6.05894,25.28935 l -4.18175,17.74958 -6.26763,-1.33821 c -9.73604,-2.07876 -29.02411,-1.79932 -38.13115,0.55244 -11.49498,2.96841 -26.42382,8.78606 -39.13018,15.24873 l -11.3947,5.79554 z"
           style="fill:#808000;stroke:none;stroke-width:1.01015258;stroke-miterlimit:4;stroke-dasharray:none;stroke-opacity:1" />
        <path
           transform="matrix(0.26458333,0,0,0.26458333,0,97)"
           inkscape:connector-curvature="0"
           id="path17278"
           d="m 470.60679,261.08408 c -20.04323,-20.1864 -44.36133,-36.19066 -65.13378,-42.86594 -3.05571,-0.98196 -5.90066,-2.09706 -6.32211,-2.47799 -0.59434,-0.53721 8.43925,-41.61425 10.93769,-49.73527 0.47279,-1.53677 1.30593,-1.47297 9.54005,0.73063 47.22174,12.63737 91.76859,43.93803 119.12964,83.70595 l 3.02027,4.38981 -30.76534,7.69395 c -16.92094,4.23168 -30.89377,7.69396 -31.05073,7.69396 -0.15696,0 -4.36702,-4.1108 -9.35569,-9.1351 z"
           style="fill:#800080;stroke:none;stroke-width:1.01015258;stroke-miterlimit:4;stroke-dasharray:none;stroke-opacity:1" />
        <path
           transform="matrix(0.26458333,0,0,0.26458333,0,97)"
           inkscape:connector-curvature="0"
           id="path17280"
           d="m 542.96147,421.34479 -22.60387,-22.62064 -0.16362,-22.58369 c -0.15865,-21.89851 -0.25967,-22.9377 -3.32965,-34.25179 -6.44159,-23.73978 -15.34499,-42.07914 -30.26879,-62.34812 -3.56132,-4.83686 -4.9694,-7.50039 -4.12229,-7.79772 2.90246,-1.01876 58.41077,-14.65564 59.6551,-14.65564 0.74171,0 3.9034,4.43205 7.02598,9.84899 25.57748,44.37096 34.2418,99.20706 23.9013,151.27035 -2.23565,11.25626 -6.15718,25.75889 -6.96524,25.75889 -0.28877,0 -10.69679,-10.17929 -23.12892,-22.62063 z"
           style="fill:#008000;stroke:none;stroke-width:1.01015258;stroke-miterlimit:4;stroke-dasharray:none;stroke-opacity:1" />
        <path
           transform="matrix(0.26458333,0,0,0.26458333,0,97)"
           inkscape:connector-curvature="0"
           id="path17282"
           d="m 456.3785,572.65451 c 0.3149,-4.94232 0.84948,-21.48666 1.18793,-36.76521 l 0.61538,-27.7792 10.84338,-11.11168 c 5.96385,-6.11142 13.01857,-14.06637 15.67715,-17.67767 14.71452,-19.98752 28.69029,-50.76494 32.95472,-72.57285 l 1.25303,-6.40786 23.08351,23.06714 c 12.69593,12.68693 23.08351,23.62993 23.08351,24.31777 0,2.42832 -8.34035,22.14985 -14.37047,33.98032 -10.97052,21.52301 -24.57318,40.43355 -42.14886,58.59574 -14.67796,15.16777 -33.04793,29.94904 -47.86627,38.51524 l -4.88557,2.82426 z"
           style="fill:#008000;stroke:none;stroke-width:1.01015258;stroke-miterlimit:4;stroke-dasharray:none;stroke-opacity:1" />
        <path
           transform="matrix(0.26458333,0,0,0.26458333,0,97)"
           inkscape:connector-curvature="0"
           id="path17284"
           d="m 367.96094,518.97652 -16.80394,-28.91956 10.74303,-2.73184 c 20.92192,-5.32022 36.39906,-13.32336 52.92222,-27.36578 l 3.79341,-3.22387 35.09746,5.8799 c 19.30362,3.23394 35.26595,6.02186 35.47186,6.19537 0.97488,0.82147 -10.42786,15.05211 -19.99932,24.95917 -17.08404,17.68306 -34.11416,30.80823 -53.61113,41.31828 -7.614,4.10441 -23.21364,10.74748 -28.78935,12.25988 -1.74434,0.47315 -4.31556,-3.40214 -18.82424,-28.37155 z"
           style="fill:#ff0000;stroke:none;stroke-width:1.01015258;stroke-miterlimit:4;stroke-dasharray:none;stroke-opacity:1" />
        <path
           transform="matrix(0.26458333,0,0,0.26458333,0,97)"
           inkscape:connector-curvature="0"
           id="path17286"
           d="m 332.27294,550.9554 c -24.9994,-3.41983 -60.39118,-14.47999 -89.52356,-27.97667 -8.14011,-3.77122 -24.88198,-14.9202 -32.85035,-21.87616 l -3.54431,-3.09399 3.53971,-33.19591 c 1.94684,-18.25776 3.70594,-33.36215 3.90912,-33.56533 0.20318,-0.20318 2.07536,1.86757 4.1604,4.60165 10.46625,13.72425 31.70038,30.70832 49.62323,39.69102 21.82439,10.9381 39.73229,15.18142 64.60938,15.30938 l 17.13222,0.0881 16.86141,28.78935 16.86143,28.78934 -4.69921,1.34672 c -5.88378,1.68619 -36.44305,2.4107 -46.07947,1.09248 z"
           style="fill:#00ffff;stroke:none;stroke-width:1.01015258;stroke-miterlimit:4;stroke-dasharray:none;stroke-opacity:1" />
        <path
           transform="matrix(0.26458333,0,0,0.26458333,0,97)"
           inkscape:connector-curvature="0"
           id="path17288"
           d="m 191.1611,485.52691 c -21.33384,-18.7287 -39.7685,-39.93311 -48.87696,-56.22057 -12.49162,-22.33708 -19.24872,-57.69741 -20.36362,-106.56399 -0.64413,-28.233 -0.67128,-28.02056 5.9373,-46.46226 2.49144,-6.95252 11.64069,-29.17066 12.35948,-30.0139 0.10051,-0.11793 14.31883,2.38806 31.59626,5.56886 l 31.41349,5.78327 -2.01763,3.93278 c -6.65051,12.96317 -13.45773,34.76332 -15.87721,50.84678 -5.78856,38.47949 2.44274,78.18274 22.80971,110.02145 l 3.67608,5.74662 -3.25329,31.89086 c -1.78931,17.53997 -3.57516,32.95865 -3.96856,34.26374 -0.67318,2.23324 -1.46385,1.71572 -13.43505,-8.79364 z"
           style="fill:#800000;stroke:none;stroke-width:1.01015258;stroke-miterlimit:4;stroke-dasharray:none;stroke-opacity:1" />
        <path
           transform="matrix(0.26458333,0,0,0.26458333,0,97)"
           inkscape:connector-curvature="0"
           id="path17290"
           d="m 172.63285,250.20998 c -16.66752,-3.08286 -30.50859,-5.76595 -30.75793,-5.96243 -1.33374,-1.05099 14.59786,-29.52732 26.72553,-47.76951 26.66137,-40.10347 59.2531,-69.86574 98.30562,-89.77117 21.24397,-10.828258 39.19099,-16.997554 56.06006,-19.270682 14.45754,-1.94817 58.2394,-0.898854 84.52718,2.025855 19.88311,2.212142 53.4582,8.840574 55.86606,11.029137 0.64211,0.58362 -16.68652,69.5083 -18.06125,71.8387 -0.19486,0.33032 -5.32585,-1.11401 -11.40219,-3.20961 -58.34669,-20.12255 -120.41855,-12.52453 -170.57911,20.88007 -20.3994,13.58503 -42.72885,37.29434 -54.8464,58.23564 -2.48756,4.29895 -4.75013,7.76294 -5.02792,7.69773 -0.27779,-0.0652 -14.14214,-2.64088 -30.80965,-5.72373 z"
           style="fill:#000080;stroke:none;stroke-width:1.01015258;stroke-miterlimit:4;stroke-dasharray:none;stroke-opacity:1" />
        <path
           transform="matrix(0.26458333,0,0,0.26458333,0,97)"
           inkscape:connector-curvature="0"
           id="path17292"
           d="m 586.86591,482.28521 c -15.51757,-5.53457 -28.35199,-10.20108 -28.52094,-10.37003 -0.16895,-0.16895 1.23586,-3.96586 3.12179,-8.4376 10.61646,-25.17259 16.45911,-52.52974 17.44913,-81.7025 1.27104,-37.45382 -5.79551,-71.04656 -21.87314,-103.97976 -16.77676,-34.3653 -41.59301,-62.73987 -73.49241,-84.03026 -9.04884,-6.0394 -30.10081,-17.70484 -35.44077,-19.63865 -0.95296,-0.34511 16.97043,-70.92711 18.36522,-72.3219 0.82137,-0.82137 11.95031,3.33322 21.21449,7.91968 13.41656,6.6422 25.99853,16.38101 48.40021,37.46318 23.3713,21.99467 63.01327,65.86036 71.0577,78.62864 12.61392,20.02107 23.05886,47.46622 29.10853,76.48567 6.59812,31.65032 6.23261,75.48983 -0.98462,118.09327 -4.4642,26.3523 -16.40926,71.00266 -19.18129,71.69926 -0.55558,0.13962 -13.70634,-4.27444 -29.2239,-9.809 z"
           style="fill:#808000;stroke:none;stroke-width:1.01015258;stroke-miterlimit:4;stroke-dasharray:none;stroke-opacity:1" />
        <path
           transform="matrix(0.26458333,0,0,0.26458333,0,97)"
           inkscape:connector-curvature="0"
           id="path17294"
           d="m 302.43745,613.23972 c -13.91047,-1.77721 -30.30162,-5.13314 -43.37776,-8.88118 -11.1482,-3.19542 -28.28542,-9.44051 -29.67134,-10.81274 -0.45275,-0.44827 13.14824,-11.83368 30.22444,-25.30089 l 31.04762,-24.48584 14.72735,3.65941 c 34.22015,8.50291 61.52456,8.81925 84.87818,0.98338 17.92847,-6.01557 45.59852,-21.79176 60.51658,-34.50378 l 5.40848,-4.60869 -0.63416,29.71493 c -0.34878,16.34322 -0.88646,32.97852 -1.19484,36.96734 l -0.5607,7.25241 -7.74917,4.02968 c -22.03871,11.46045 -50.67616,20.68365 -77.44969,24.94406 -13.94615,2.21921 -52.23124,2.82209 -66.16499,1.04191 z"
           style="fill:#008080;stroke:none;stroke-width:1.01015258;stroke-miterlimit:4;stroke-dasharray:none;stroke-opacity:1" />
        <path
           transform="matrix(0.26458333,0,0,0.26458333,0,97)"
           inkscape:connector-curvature="0"
           id="path17296"
           d="m 213.44465,586.47454 c -39.46504,-19.92403 -72.75891,-47.53445 -98.20249,-81.43879 -8.88895,-11.84479 -22.656484,-33.42951 -21.807162,-34.18924 0.223272,-0.19971 11.958682,-7.73035 26.078692,-16.73474 20.28501,-12.93583 25.84578,-16.06244 26.49723,-14.89836 2.98199,5.32853 17.2641,22.20224 27.5663,32.56844 20.44831,20.57533 50.1527,43.96198 65.72569,51.7467 8.43259,4.21534 32.34338,13.86567 41.92133,16.91933 3.05572,0.97423 5.89502,1.96384 6.30958,2.19913 0.59539,0.33792 -61.29338,49.9067 -62.14831,49.77665 -0.12361,-0.0188 -5.49698,-2.69591 -11.94086,-5.94912 z"
           style="fill:#0000ff;stroke:none;stroke-width:1.01015258;stroke-miterlimit:4;stroke-dasharray:none;stroke-opacity:1" />
        <path
           transform="matrix(0.26458333,0,0,0.26458333,0,97)"
           inkscape:connector-curvature="0"
           id="path17298"
           d="m 90.754291,466.74985 c -6.246463,-9.53331 -19.652689,-46.4718 -24.112098,-66.43665 -5.436569,-24.3396 -6.056912,-30.63762 -6.097891,-61.90873 -0.04115,-31.40241 0.764619,-39.7876 6.152092,-64.02134 16.360955,-73.59424 61.887226,-141.45835 124.226266,-185.178857 10.7845,-7.563542 30.65276,-19.381838 31.37294,-18.661658 0.32041,0.320405 4.17688,11.829263 8.56993,25.57524 6.48589,20.294475 7.72071,25.141925 6.56876,25.786595 -5.04148,2.82135 -22.19838,17.1671 -32.34187,27.04266 -18.33354,17.84928 -35.44029,40.17594 -50.55853,65.98583 -13.78044,23.52599 -31.17582,63.6114 -33.82603,77.94773 -2.03888,11.02929 -0.98918,50.37509 1.96911,73.80808 3.03665,24.05372 9.45171,47.34114 17.01989,61.78419 2.24936,4.29267 3.98891,7.87488 3.86566,7.96048 -0.12326,0.0856 -11.70299,7.47983 -25.73275,16.43165 l -25.508662,16.27604 z"
           style="fill:#ff0000;stroke:none;stroke-width:1.01015258;stroke-miterlimit:4;stroke-dasharray:none;stroke-opacity:1" />
        <path
           transform="matrix(0.26458333,0,0,0.26458333,0,97)"
           inkscape:connector-curvature="0"
           id="path17302"
           d="M 626.84518,261.87738 C 622.43451,249.71908 612.96533,230.80031 606.64455,221.51795 596.60903,206.7803 555.81186,162.50392 532.74093,141.31178 505.24245,116.05265 492.46091,107.7975 468.83302,100.03589 445.30473,92.307002 415.71831,87.434807 379.8546,85.38322 c -35.49906,-2.030728 -55.90097,-1.163133 -72.64161,3.0891 -16.5759,4.210392 -42.99214,16.05424 -59.21792,26.55064 -3.91036,2.5296 -7.30023,4.27729 -7.53304,3.88377 -0.72058,-1.218 -15.80633,-48.401004 -15.80633,-49.43673 0,-0.537087 4.46619,-3.077294 9.92487,-5.644903 78.9117,-37.117865 168.9632,-39.637938 252.20972,-7.058038 80.50354,31.50639 146.70476,92.672361 183.45725,169.503501 3.27049,6.83698 5.92857,12.81748 5.90685,13.28999 -0.04,0.87072 -41.97366,30.19199 -44.53268,31.13861 -0.98817,0.36554 -2.36843,-2.18366 -4.77653,-8.82178 z"
           style="fill:#800000;stroke:none;stroke-width:1.01015258;stroke-miterlimit:4;stroke-dasharray:none;stroke-opacity:1" />
        <path
           transform="matrix(0.26458333,0,0,0.26458333,0,97)"
           inkscape:connector-curvature="0"
           id="path17304"
           d="m 506.56642,666.09316 c -5.11204,-14.50337 -9.15283,-26.47112 -8.97954,-26.59497 0.1733,-0.12387 4.17892,-2.85499 8.90138,-6.06918 24.32392,-16.55526 54.06072,-44.05357 68.33886,-63.19453 18.91343,-25.35492 35.44705,-55.0855 45.40275,-81.64277 4.4,-11.73718 12.56711,-43.44041 15.97394,-62.00793 5.29256,-28.8449 6.1514,-38.79801 6.12712,-71.00671 -0.0251,-33.32839 -1.14649,-43.39719 -7.58216,-68.08116 -1.65088,-6.33194 -3.00159,-12.07413 -3.00159,-12.76043 0,-1.09223 43.82229,-32.2955 45.35623,-32.2955 0.86282,0 7.81206,19.23476 12.27831,33.9851 4.57283,15.10229 9.30427,37.64599 11.73609,55.91848 2.46562,18.52651 2.44408,64.43573 -0.0389,82.83251 -15.20938,112.69027 -76.15395,208.63921 -170.81334,268.9224 -7.22384,4.60046 -13.42008,8.36447 -13.7694,8.36447 -0.34933,0 -4.81772,-11.8664 -9.92976,-26.36978 z"
           style="fill:#00ff00;stroke:none;stroke-width:1.01015258;stroke-miterlimit:4;stroke-dasharray:none;stroke-opacity:1" />
        <path
           transform="matrix(0.26458333,0,0,0.26458333,0,97)"
           inkscape:connector-curvature="0"
           id="path17346"
           d="m 459.7563,691.26744 c -5.94702,-12.88037 -10.70676,-23.49533 -10.57721,-23.5888 0.12955,-0.0935 6.37223,-3.48176 13.87261,-7.52953 7.50038,-4.04777 17.86003,-10.00626 23.02144,-13.24108 l 9.38438,-5.8815 1.05963,2.73724 c 3.33572,8.61689 17.04218,48.38091 17.04218,49.44135 0,1.33 -18.40611,10.9119 -33.71833,17.55317 -4.98106,2.1604 -9.10495,3.92801 -9.1642,3.92801 -0.0593,0 -4.97348,-10.53849 -10.9205,-23.41886 z"
           style="fill:url(#linearGradient17354);fill-opacity:1;stroke:none;stroke-width:1.01015258;stroke-miterlimit:4;stroke-dasharray:none;stroke-opacity:1" />
        <path
           transform="matrix(0.26458333,0,0,0.26458333,0,97)"
           inkscape:connector-curvature="0"
           id="path17385"
           d="m 447.55223,664.43121 c -1.08888,-1.76869 -27.94317,-63.20485 -27.69974,-63.37035 0.14725,-0.1001 2.99514,-1.24459 6.32864,-2.54333 34.30228,-13.36413 70.73173,-39.88836 95.66728,-69.65517 9.71046,-11.59187 22.94125,-31.25991 30.09911,-44.74338 2.87564,-5.41694 5.5538,-9.84899 5.95145,-9.84899 1.17903,0 56.70202,19.89274 57.3603,20.55102 1.04293,1.04293 -17.28171,36.95204 -25.5968,50.15966 -12.62092,20.047 -22.74934,32.69536 -39.64733,49.51163 -25.18598,25.06417 -54.10988,45.97895 -89.55276,64.75533 -11.77843,6.23979 -12.16448,6.3948 -12.91015,5.18358 z"
           style="fill:url(#linearGradient17393);fill-opacity:1;stroke:none;stroke-width:1.01015258;stroke-miterlimit:4;stroke-dasharray:none;stroke-opacity:1" />
      </g>
    </g>
  </g>
</svg>
