<?xml version="1.0" encoding="UTF-8" standalone="no"?>
<!--
  ~  Copyright (C) 2018 Team Gateship-One
  ~  (Hendrik Borghorst & Frederik Luetkes)
  ~
  ~  The AUTHORS.md file contains a detailed contributors list:
  ~  <https://gitlab.com/matthias-weiss/musicala/blob/master/AUTHORS.md>
  ~
  ~  This program is free software: you can redistribute it and/or modify
  ~  it under the terms of the GNU General Public License as published by
  ~  the Free Software Foundation, either version 3 of the License, or
  ~  (at your option) any later version.
  ~
  ~  This program is distributed in the hope that it will be useful,
  ~  but WITHOUT ANY WARRANTY; without even the implied warranty of
  ~  MERCHANTABILITY or FITNESS FOR A PARTICULAR PURPOSE.  See the
  ~  GNU General Public License for more details.
  ~
  ~  You should have received a copy of the GNU General Public License
  ~  along with this program.  If not, see <http://www.gnu.org/licenses/>.
  ~
  -->

<!-- Created with Inkscape (http://www.inkscape.org/) -->

<svg
   xmlns:dc="http://purl.org/dc/elements/1.1/"
   xmlns:cc="http://creativecommons.org/ns#"
   xmlns:rdf="http://www.w3.org/1999/02/22-rdf-syntax-ns#"
   xmlns:svg="http://www.w3.org/2000/svg"
   xmlns="http://www.w3.org/2000/svg"
   xmlns:xlink="http://www.w3.org/1999/xlink"
   xmlns:sodipodi="http://sodipodi.sourceforge.net/DTD/sodipodi-0.dtd"
   xmlns:inkscape="http://www.inkscape.org/namespaces/inkscape"
   inkscape:export-ydpi="90"
   inkscape:export-xdpi="90"
   inkscape:export-filename="C:\Users\Stephan\Desktop\double-shape.png"
   sodipodi:docname="temp_icon.svg"
   inkscape:version="0.92+devel unknown"
   version="1.1"
   id="svg2"
   height="108"
   width="108">
  <defs
     id="defs4">
    <linearGradient
       id="linearGradient3789-6">
      <stop
         style="stop-color:#e50c98;stop-opacity:1;"
         offset="0"
         id="stop3791-0" />
      <stop
         style="stop-color:#960862;stop-opacity:1;"
         offset="1"
         id="stop3793-4" />
    </linearGradient>
    <linearGradient
       inkscape:collect="always"
       xlink:href="#linearGradient3789-6"
       id="linearGradient3922"
       gradientUnits="userSpaceOnUse"
       spreadMethod="reflect"
       x1="45"
       y1="10"
       x2="45"
       y2="80" />
    <linearGradient
       id="linearGradient3789-6-7">
      <stop
         style="stop-color:#0a75c2;stop-opacity:1;"
         offset="0"
         id="stop3791-0-4" />
      <stop
         style="stop-color:#064572;stop-opacity:1;"
         offset="1"
         id="stop3793-4-0" />
    </linearGradient>
    <linearGradient
       y2="80"
       x2="45"
       y1="10"
       x1="45"
       spreadMethod="reflect"
       gradientUnits="userSpaceOnUse"
       id="linearGradient3016"
       xlink:href="#linearGradient3789-6-7"
       inkscape:collect="always"
       gradientTransform="rotate(180,45,45)" />
    <linearGradient
       id="linearGradient5048">
      <stop
         id="stop5050"
         style="stop-color:#c3c3c3;stop-opacity:1"
         offset="0" />
      <stop
         id="stop5052"
         style="stop-color:#ffffff;stop-opacity:1"
         offset="1" />
    </linearGradient>
    <linearGradient
       id="linearGradient5239">
      <stop
         id="stop5241"
         style="stop-color:#ffffff;stop-opacity:1"
         offset="0" />
      <stop
         id="stop5243"
         style="stop-color:#c0c0c0;stop-opacity:1"
         offset="1" />
    </linearGradient>
    <linearGradient
       id="linearGradient4053">
      <stop
         id="stop4055"
         style="stop-color:#ffffff;stop-opacity:1"
         offset="0" />
      <stop
         id="stop4057"
         style="stop-color:#c0c0c0;stop-opacity:1"
         offset="1" />
    </linearGradient>
    <linearGradient
       inkscape:collect="always"
       xlink:href="#linearGradient5239"
       id="linearGradient4007"
       gradientUnits="userSpaceOnUse"
       gradientTransform="matrix(0.9848564,0,0,0.9848564,-0.92040974,1.4578175)"
       x1="56.516762"
       y1="37.6446"
       x2="70.611412"
       y2="21.701733" />
    <linearGradient
       id="linearGradient4060">
      <stop
         id="stop4062"
         style="stop-color:#ffffff;stop-opacity:1"
         offset="0" />
      <stop
         id="stop4064"
         style="stop-color:#c0c0c0;stop-opacity:1"
         offset="1" />
    </linearGradient>
  </defs>
  <sodipodi:namedview
     inkscape:snap-global="true"
     inkscape:snap-bbox="true"
     inkscape:window-maximized="1"
     inkscape:window-y="27"
     inkscape:window-x="0"
     inkscape:window-height="1016"
     inkscape:window-width="1920"
     showgrid="true"
     inkscape:current-layer="layer2"
     inkscape:document-units="px"
     inkscape:cy="77.579143"
     inkscape:cx="55.629096"
     inkscape:zoom="4"
     inkscape:pageshadow="2"
     inkscape:pageopacity="0"
     borderopacity="1.0"
     bordercolor="#666666"
     pagecolor="#000000"
     id="base"
     inkscape:document-rotation="0">
    <inkscape:grid
       type="xygrid"
       id="grid2985"
       empspacing="5"
       visible="true"
       enabled="true"
       snapvisiblegridlinesonly="true" />
  </sodipodi:namedview>
  <metadata
     id="metadata7">
    <rdf:RDF>
      <cc:Work
         rdf:about="">
        <dc:format>image/svg+xml</dc:format>
        <dc:type
           rdf:resource="http://purl.org/dc/dcmitype/StillImage" />
        <dc:title></dc:title>
      </cc:Work>
    </rdf:RDF>
  </metadata>
  <g
     inkscape:groupmode="layer"
     id="layer2"
     inkscape:label="Ebene"
     style="display:inline"
     transform="translate(0,18)">
    <g
       id="g4558"
       transform="matrix(0.96385157,0,0,0.96385157,12.910302,-9.3250175)">
      <path
         d="M 52.81543,34.029447 45.385083,35.993253 33.80586,39.05359 c -0.838149,0.22214 -1.523476,1.1107 -1.523476,1.978779 v 22.778008 c -1.772399,-0.475789 -4.04422,-0.247348 -6.221514,0.803485 -14.102056,8.768958 9.000902,14.465262 9.37087,2.831102 V 47.805273 L 51.186398,43.63818 v 17.022852 c -1.772398,-0.474215 -4.042645,-0.248924 -6.221513,0.803484 -3.705497,1.791299 -5.687433,5.239981 -4.425484,7.702427 1.258797,2.462443 5.284112,3.009129 8.991183,1.214679 2.953998,-1.427367 4.813049,-3.902415 4.806746,-6.095456 V 35.201589 c 0.0016,-0.866503 -0.685328,-1.394282 -1.5219,-1.172142 z"
         id="path3158-7"
         style="fill:#ffffff;fill-opacity:1"
         inkscape:connector-curvature="0" />
      <g
         transform="matrix(0.88945724,0,0,0.88945422,24.142639,39.933439)"
         id="PLACE_YOUR_GRAPHIC_HERE">
        <path
           inkscape:connector-curvature="0"
           style="fill:none;fill-opacity:1"
           id="path3158"
           d="m 31.324503,-7.5153618 -8.3538,2.2078791 -13.0183021,3.4406899 C 9.0100871,-1.6170442 8.2395861,-0.61804991 8.2395861,0.35791796 V 25.96689 C 6.2469113,25.431967 3.6927449,25.688801 1.2448546,26.870236 -14.609821,36.729043 11.3644,43.133312 11.780348,30.053201 V 7.9725928 l 17.712665,-4.685 V 22.426128 c -1.992675,-0.533151 -4.54507,-0.27986 -6.994731,0.903346 -4.166019,2.01393 -6.394272,5.891232 -4.975488,8.659722 1.415242,2.768489 5.940828,3.383119 10.108618,1.365646 3.321125,-1.604767 5.411219,-4.387427 5.404134,-6.85303 V -6.1975395 c 0.0018,-0.9741966 -0.770501,-1.5675709 -1.711043,-1.3178223 z" />
      </g>
      <path
         inkscape:connector-curvature="0"
         style="fill:none;stroke:#ffffff;stroke-width:1.66619432;stroke-linecap:butt;stroke-linejoin:miter;stroke-miterlimit:4;stroke-dasharray:none;stroke-opacity:1;marker-start:none"
         id="path3187"
         d="m 50.757612,24.306661 c 3.38952,0.558425 5.597152,1.96256 7.022522,3.599338 2.904886,3.335724 2.560763,7.637698 2.35032,7.716615 l 0.171455,-0.914421" />
      <path
         inkscape:connector-curvature="0"
         style="fill:none;stroke:#ffffff;stroke-width:1.89586973;stroke-linecap:butt;stroke-linejoin:miter;stroke-miterlimit:4;stroke-dasharray:none;stroke-opacity:1;marker-start:none"
         id="path3187-1"
         d="m 52.008206,20.985112 c 3.856747,0.635402 5.342694,1.786561 7.23384,3.14962 2.043073,1.472562 4.427145,5.852904 4.376867,10.861217" />
      <path
         inkscape:connector-curvature="0"
         style="fill:none;stroke:#ffffff;stroke-width:1.42196059;stroke-linecap:butt;stroke-linejoin:miter;stroke-miterlimit:4;stroke-dasharray:none;stroke-opacity:1;marker-start:none"
         id="path3187-7"
         d="m 49.505616,27.633634 c 2.892679,0.47657 4.776709,1.674885 5.993151,3.071741 2.479079,2.846768 2.185399,6.51815 2.005803,6.585499 l 0.146323,-0.780384" />
    </g>
    <rect
       style="fill:none;stroke:#ff0000;stroke-width:7.06459522;stroke-miterlimit:4;stroke-dasharray:none;stroke-opacity:1"
       id="rect4293"
       width="100.9354"
       height="100.9354"
       x="3.5322976"
       y="-14.467702" />
  </g>
</svg>
